<?xml version="1.0" encoding="utf-8"?>
<!-- Generator: Adobe Illustrator 15.0.0, SVG Export Plug-In  -->
<!DOCTYPE svg PUBLIC "-//W3C//DTD SVG 1.1//EN" "http://www.w3.org/Graphics/SVG/1.1/DTD/svg11.dtd" [
	<!ENTITY ns_flows "http://ns.adobe.com/Flows/1.0/">
]>
<svg version="1.1"
	 xmlns="http://www.w3.org/2000/svg" xmlns:xlink="http://www.w3.org/1999/xlink" xmlns:a="http://ns.adobe.com/AdobeSVGViewerExtensions/3.0/"
	 x="0px" y="0px" width="200px" height="25px" viewBox="0 -0.403 200 25"
	 overflow="visible" enable-background="new 0 -0.403 200 25" xml:space="preserve">
<defs>
</defs>
<path fill="#0F110F" d="M153.494,2.944h-0.98V13.11h0.553c3.335,0,4.468-2.091,4.468-4.971
	C157.534,4.94,156.494,2.944,153.494,2.944 M153.893,14.123h-1.379v6.714c0,0.696,0.245,1.234,0.92,1.551
	c0.366,0.158,1.652,0.443,2.232,0.506v0.729h-11.507v-0.729c0.554-0.03,1.96-0.251,2.327-0.411c0.734-0.283,0.92-0.854,0.92-1.551
	V4.877c0-0.698-0.155-1.235-0.92-1.553c-0.582-0.22-1.805-0.538-2.327-0.6V1.995h11.05c5.202,0,7.804,1.709,7.804,5.383
	C163.013,12.128,158.574,14.123,153.893,14.123"/>
<path fill="#0F110F" d="M18.331,7.884c-0.428-1.393-2.081-4.56-3.396-4.75c-0.644-0.094-1.469-0.158-2.205-0.158h-0.61v17.766
	c0,0.696,0.244,1.266,0.918,1.583c0.367,0.158,1.897,0.507,2.479,0.569v0.729H3.642v-0.729c0.519-0.03,2.05-0.253,2.448-0.411
	c0.704-0.283,0.917-0.887,0.917-1.584V2.976H6.396c-0.703,0-1.56,0.064-2.203,0.158c-1.286,0.19-2.969,3.357-3.397,4.75H0V1.994
	h19.126v5.891H18.331z"/>
<path fill="#0F110F" d="M27.789,23.622v-0.664c0.368-0.033,0.827-0.064,1.133-0.253c0.397-0.223,0.458-0.698,0.458-1.393v-7.6
	c0-2.091-0.734-3.104-1.775-3.104c-1.622,0-2.417,1.204-2.724,1.931v8.613c0,0.696,0.092,1.14,0.551,1.426
	c0.337,0.221,0.796,0.347,1.163,0.38v0.664h-8.201v-0.664c0.551-0.033,0.917-0.095,1.316-0.253c0.581-0.223,0.764-0.698,0.764-1.393
	V3.356c0-0.696-0.305-1.456-0.795-1.805c-0.368-0.253-1.499-0.507-2.051-0.538V0.38L24.698,0l0.184,0.223v10.956h0.061
	c1.133-1.204,2.205-2.597,4.774-2.597c2.815,0,4.132,1.962,4.132,4.97v7.665c0,0.695,0.152,1.14,0.705,1.394
	c0.396,0.188,0.795,0.283,1.315,0.348v0.664H27.789z"/>
<path fill="#222120" d="M42.451,9.405c-1.407,0-2.051,1.836-2.142,5.036l3.918-0.064C44.227,11.906,44.195,9.405,42.451,9.405
	 M42.879,24.098c-5.019,0-7.345-3.481-7.345-7.853c0-4.084,2.511-7.663,7.131-7.663c4.682,0,6.305,3.008,6.305,6.301v0.445h-8.661
	c-0.031,0,0,0.348,0,0.379c0,3.735,1.133,6.492,4.1,6.492c1.867,0,3.184-0.698,4.285-2.913l0.611,0.475
	C48.174,22.167,45.94,24.098,42.879,24.098"/>
<path fill="#DF0918" d="M60.355,3.198c-0.734,0.253-0.918,0.856-0.918,1.553v12.287c0,4.622-3.52,7.156-7.59,7.156
	c-3.856,0-5.57-1.647-5.57-3.96c0-1.866,1.162-3.071,2.907-3.071c1.682,0,2.663,1.172,2.663,2.63c0,1.234-0.827,2.375-1.959,2.943
	v0.158c0.276,0.127,0.705,0.223,1.01,0.223c2.357,0,3.458-1.899,3.458-5.446V4.909c0-0.698-0.245-1.267-0.949-1.584
	c-0.551-0.253-1.744-0.538-2.326-0.6V1.995h11.446v0.729C61.946,2.787,60.937,3.009,60.355,3.198"/>
<path fill="#DF0918" d="M66.37,19.6c0,1.87,0.673,2.504,1.53,2.504c1.04,0,1.347-0.476,1.806-1.205l0.123-5.51
	C67.716,16.245,66.37,16.941,66.37,19.6 M73.409,24.033c-1.958,0-2.907-0.887-3.52-2.057h-0.092
	c-1.009,1.109-1.99,2.121-4.376,2.121c-2.081,0-3.702-1.52-3.702-3.611c0-2.69,1.468-3.513,3-4.083
	c1.836-0.697,4.314-1.426,5.079-2.026v-1.838c0-1.076,0-3.198-1.744-3.198c-0.766,0-1.255,0.349-1.5,0.601
	c0.091,0.508,0.55,1.426,0.55,2.408c0,0.696-0.917,1.805-2.508,1.805c-1.593,0-2.205-1.14-2.205-2.187
	c0-1.962,3.275-3.387,5.908-3.387c3.274,0,5.967,0.538,5.967,4.749c0,2.881-0.184,6.269-0.184,7.314
	c0,0.507,0.337,1.489,1.102,1.489c0.918,0,1.163-1.298,1.194-2.724h0.766C77.081,22.071,76.164,24.033,73.409,24.033"/>
<path fill="#DF0918" d="M87.06,23.622c-0.551-2.405-2.264-6.903-3.796-6.903c-0.245,0-0.551,0.223-0.734,0.443v4.022
	c0,0.696,0.154,1.14,0.644,1.394c0.396,0.253,0.949,0.347,1.316,0.38v0.664h-8.447v-0.664c0.551-0.033,0.919-0.095,1.316-0.253
	c0.582-0.223,0.766-0.698,0.766-1.393V3.356c0-0.727-0.306-1.456-0.797-1.805c-0.366-0.253-1.499-0.507-2.049-0.538V0.38L82.347,0
	l0.183,0.223v16.022c1.194-1.203,3.123-3.135,4.469-4.909c0.306-0.411,0.367-0.666,0.367-0.951c0-0.347-1.194-0.633-2.051-0.759
	V8.993h6.916v0.633c-1.713,0.475-2.63,0.887-3.61,1.646c-0.673,0.507-1.623,1.489-2.45,2.375c2.939,1.458,4.102,5.48,5.112,8.012
	c0.245,0.57,0.61,0.887,1.07,1.046c0.46,0.158,0.979,0.253,1.256,0.253v0.664H87.06z"/>
<path fill="#DF0918" d="M97.284,19.6c0,1.87,0.673,2.504,1.53,2.504c1.04,0,1.346-0.476,1.808-1.205l0.121-5.51
	C98.63,16.245,97.284,16.941,97.284,19.6 M104.322,24.033c-1.957,0-2.906-0.887-3.518-2.057h-0.094
	c-1.009,1.109-1.99,2.121-4.376,2.121c-2.081,0-3.703-1.52-3.703-3.611c0-2.69,1.469-3.513,3-4.083
	c1.835-0.697,4.315-1.426,5.08-2.026v-1.838c0-1.076,0-3.198-1.744-3.198c-0.766,0-1.255,0.349-1.5,0.601
	c0.093,0.508,0.551,1.426,0.551,2.408c0,0.696-0.917,1.805-2.509,1.805s-2.204-1.14-2.204-2.187c0-1.962,3.274-3.387,5.907-3.387
	c3.274,0,5.967,0.538,5.967,4.749c0,2.881-0.183,6.269-0.183,7.314c0,0.507,0.338,1.489,1.1,1.489c0.919,0,1.165-1.298,1.195-2.724
	h0.766C107.994,22.071,107.077,24.033,104.322,24.033"/>
<path fill="#DF0918" d="M117.942,14.249c-1.317,0-2.265-0.758-2.265-2.057c0-0.57,0.275-1.14,0.366-1.52
	c-1.314,0.031-2.172,1.076-2.418,1.52v8.993c0,0.696,0.308,1.172,0.825,1.394c0.49,0.221,1.562,0.349,2.021,0.38v0.664h-9.334
	v-0.664c0.488-0.031,0.887-0.095,1.285-0.253c0.582-0.223,0.766-0.698,0.766-1.393v-9.374c0-0.603-0.338-1.331-0.795-1.68
	c-0.338-0.253-1.012-0.442-1.531-0.474V9.152l6.549-0.38l0.214,0.221v2.122h0.062c1.226-1.646,2.479-2.469,3.949-2.469
	c1.529,0,2.661,1.14,2.661,2.88C120.298,13.016,119.349,14.249,117.942,14.249"/>
<path fill="#DF0918" d="M126.269,24.033c-2.817,0-4.224-1.709-4.224-4.526v-9.121h-2.602V9.024h2.663v-4.59h4.346v4.59h3.856v1.362
	h-3.856v8.9c0,1.265,0.398,2.562,1.774,2.562c1.438,0,1.623-1.267,1.685-2.66h0.795C130.645,21.754,129.482,24.033,126.269,24.033"
	/>
<path fill="#DF0918" d="M135.56,19.6c0,1.87,0.674,2.504,1.531,2.504c1.04,0,1.347-0.476,1.806-1.205l0.121-5.51
	C136.907,16.245,135.56,16.941,135.56,19.6 M142.6,24.033c-1.959,0-2.908-0.887-3.52-2.057h-0.091
	c-1.012,1.109-1.99,2.121-4.378,2.121c-2.082,0-3.703-1.52-3.703-3.611c0-2.69,1.469-3.513,3-4.083
	c1.834-0.697,4.314-1.426,5.081-2.026v-1.838c0-1.076,0-3.198-1.745-3.198c-0.766,0-1.256,0.349-1.502,0.601
	c0.094,0.508,0.553,1.426,0.553,2.408c0,0.696-0.92,1.805-2.51,1.805c-1.592,0-2.203-1.14-2.203-2.187
	c0-1.962,3.273-3.387,5.906-3.387c3.274,0,5.969,0.538,5.969,4.749c0,2.881-0.185,6.269-0.185,7.314
	c0,0.507,0.336,1.489,1.101,1.489c0.92,0,1.165-1.298,1.195-2.724h0.764C146.271,22.071,145.354,24.033,142.6,24.033"/>
<path fill="#0F110F" d="M169.228,9.341c-2.388,0-2.724,3.738-2.724,6.777c0,3.801,0.52,7.156,2.693,7.156
	c2.08,0,2.662-3.26,2.662-7.094C171.859,12.857,171.493,9.341,169.228,9.341 M169.074,24.098c-4.131,0-7.529-2.943-7.529-7.79
	c0-4.528,2.971-7.726,7.652-7.726c4.772,0,7.59,3.198,7.59,7.633C176.787,20.616,174.186,24.098,169.074,24.098"/>
<path fill="#0F110F" d="M183.188,24.098c-1.958,0-3.581-0.854-4.192-1.362l-0.55,1.078h-0.921l-0.153-5.479h0.613
	c0.613,1.901,2.479,4.939,4.988,4.939c1.562,0,2.297-0.95,2.297-2.438c0-1.648-1.408-2.185-3.489-2.913
	c-2.052-0.729-4.009-1.932-4.009-4.876c0-2.439,2.019-4.465,5.416-4.465c1.498,0,2.847,0.411,3.703,0.854l0.396-0.887h0.889
	l0.184,5.002h-0.581c-0.675-2.184-2.418-4.146-4.13-4.146c-1.47,0-2.052,0.949-2.052,2.121c0,1.647,0.978,1.995,3.366,2.819
	c2.418,0.822,4.102,2.248,4.102,4.843C189.064,22.388,186.494,24.098,183.188,24.098"/>
<path fill="#0F110F" d="M195.561,24.033c-2.814,0-4.223-1.709-4.223-4.526v-9.121h-2.601V9.024h2.663v-4.59h4.344v4.59h3.855v1.362
	h-3.855v8.9c0,1.265,0.397,2.562,1.776,2.562c1.438,0,1.622-1.267,1.683-2.66H200C199.939,21.754,198.774,24.033,195.561,24.033"/>
</svg>
