<?xml version="1.0" encoding="UTF-8"?>
<svg width="282px" height="186px" viewBox="0 0 282 186" version="1.1" xmlns="http://www.w3.org/2000/svg" xmlns:xlink="http://www.w3.org/1999/xlink">
    <!-- Generator: Sketch 56.3 (81716) - https://sketch.com -->
    <title>circle-coinranking</title>
    <desc>Created with Sketch.</desc>
    <defs>
        <rect id="path-1" x="0" y="0" width="246" height="150" rx="8"></rect>
        <filter x="-11.8%" y="-16.7%" width="123.6%" height="138.7%" filterUnits="objectBoundingBox" id="filter-2">
            <feOffset dx="0" dy="4" in="SourceAlpha" result="shadowOffsetOuter1"></feOffset>
            <feGaussianBlur stdDeviation="9" in="shadowOffsetOuter1" result="shadowBlurOuter1"></feGaussianBlur>
            <feColorMatrix values="0 0 0 0 0   0 0 0 0 0   0 0 0 0 0  0 0 0 0.15 0" type="matrix" in="shadowBlurOuter1"></feColorMatrix>
        </filter>
    </defs>
    <g id="Page-1" stroke="none" stroke-width="1" fill="none" fill-rule="evenodd">
        <g id="Home-1Exchange" transform="translate(-394.000000, -4977.000000)">
            <g id="section-partner" transform="translate(-146.000000, 4555.000000)">
                <g id="circle-coinranking" transform="translate(558.000000, 436.000000)">
                    <g id="Rectangle">
                        <use fill="black" fill-opacity="1" filter="url(#filter-2)" xlink:href="#path-1"></use>
                        <use fill="#FFFFFF" fill-rule="evenodd" xlink:href="#path-1"></use>
                    </g>
                    <g id="coin-ranking" transform="translate(88.079470, 40.649007)" fill="#3CD483" fill-rule="nonzero">
                        <path d="M4.51471863,20.4852814 C-3.04485971,12.925703 2.30914179,0 13,0 L58,0 C64.627417,0 70,5.372583 70,12 L70,57 C70,67.6908582 57.074297,73.0448597 49.5147186,65.4852814 L4.51471863,20.4852814 Z" id="Path" opacity="0.35"></path>
                        <path d="M49.5147186,3.51471863 L4.51471863,48.5147186 C-0.171572875,53.2010101 -0.171572875,60.7989899 4.51471863,65.4852814 C9.20101013,70.1715729 16.7989899,70.1715729 21.4852814,65.4852814 L66.4852814,20.4852814 C71.1715729,15.7989899 71.1715729,8.20101013 66.4852814,3.51471863 C61.7989899,-1.17157288 54.2010101,-1.17157288 49.5147186,3.51471863 Z" id="Path"></path>
                    </g>
                </g>
            </g>
        </g>
    </g>
</svg>