<?xml version="1.0" encoding="UTF-8"?>
<svg width="1440px" height="550px" viewBox="0 0 1440 550" version="1.1" xmlns="http://www.w3.org/2000/svg" xmlns:xlink="http://www.w3.org/1999/xlink">
    <!-- Generator: Sketch 46.1 (44463) - http://www.bohemiancoding.com/sketch -->
    <title>bg@3x</title>
    <desc>Created with Sketch.</desc>
    <defs></defs>
    <g id="karir-desktop" stroke="none" stroke-width="1" fill="none" fill-rule="evenodd">
        <g id="06-karir" transform="translate(0.000000, -2737.000000)" fill="#E3F4E9">
            <g id="benefits" transform="translate(0.000000, 2737.000000)">
                <rect id="bg" x="0" y="0" width="1440" height="550"></rect>
            </g>
        </g>
    </g>
</svg>