<?xml version="1.0" encoding="UTF-8"?>
<svg width="1440px" height="786px" viewBox="0 0 1440 786" version="1.1" xmlns="http://www.w3.org/2000/svg" xmlns:xlink="http://www.w3.org/1999/xlink">
    <!-- Generator: Sketch 57.1 (83088) - https://sketch.com -->
    <title>section-partner</title>
    <desc>Created with Sketch.</desc>
    <defs>
        <rect id="path-1" x="0.544483986" y="0" width="1442" height="786"></rect>
        <linearGradient x1="100%" y1="48.2204705%" x2="0%" y2="48.2204692%" id="linearGradient-3">
            <stop stop-color="#1AA74A" offset="0%"></stop>
            <stop stop-color="#007EA5" offset="100%"></stop>
        </linearGradient>
    </defs>
    <g id="Page-1" stroke="none" stroke-width="1" fill="none" fill-rule="evenodd">
        <g id="Home-3Tokolaunchpad" transform="translate(0.000000, -4555.000000)">
            <g id="section-partner" transform="translate(-1.544484, 4555.000000)">
                <mask id="mask-2" fill="white">
                    <use xlink:href="#path-1"></use>
                </mask>
                <use id="background-partner" fill="#FFFFFF" xlink:href="#path-1"></use>
                <path d="M39.088968,12 L1481.08897,12 L1481.08897,621 C1429.75563,681.666667 1327.08897,712 1173.08897,712 C942.088968,712 774.948959,641.557305 540.088968,682 C305.228977,722.442695 305.088968,805 29.088968,782 C-154.911032,766.666667 -151.577699,510 39.088968,12 Z" id="background-partner-copy" fill="#F0F0F0" mask="url(#mask-2)"></path>
                <path d="M1.54448399,0 L1443.54448,0 L1443.54448,609 C1392.21115,669.666667 1289.54448,700 1135.54448,700 C904.544484,700 737.404475,629.557305 502.544484,670 C267.684493,710.442695 267.544484,793 -8.45551601,770 C-192.455516,754.666667 -189.122183,498 1.54448399,0 Z" id="background-partner" fill="url(#linearGradient-3)" mask="url(#mask-2)"></path>
            </g>
        </g>
    </g>
</svg>