
<svg width="12px" height="12px" viewBox="0 0 12 12" version="1.1" xmlns="http://www.w3.org/2000/svg" xmlns:xlink="http://www.w3.org/1999/xlink">
    <!-- Generator: Sketch 49.1 (51147) - http://www.bohemiancoding.com/sketch -->
    <desc>Created with Sketch.</desc>
    <defs></defs>
    <g id="Web" stroke="none" stroke-width="1" fill="none" fill-rule="evenodd" opacity="0.799999952">
        <g id="Popup---Desain-Online" transform="translate(-1006.000000, -150.000000)">
            <g id="Desain-Online-Popup" transform="translate(400.000000, 128.000000)">
                <g id="Close" transform="translate(604.000000, 20.000000)">
                    <rect id="Bound" fill-opacity="0" fill="#D8D8D8" x="0" y="0" width="16" height="16"></rect>
                    <path d="M3,3 L13,13" id="Path-2" stroke="#FFFFFF" stroke-width="2" stroke-linecap="round"></path>
                    <path d="M3,3 L13,13" id="Path-2" stroke="#FFFFFF" stroke-width="2" stroke-linecap="round" transform="translate(8.000000, 8.000000) scale(-1, 1) translate(-8.000000, -8.000000) "></path>
                </g>
            </g>
        </g>
    </g>
</svg>