<?xml version="1.0" encoding="UTF-8"?>
<svg width="59px" height="90px" viewBox="0 0 59 90" version="1.1" xmlns="http://www.w3.org/2000/svg" xmlns:xlink="http://www.w3.org/1999/xlink">
    <!-- Generator: Sketch 46.1 (44463) - http://www.bohemiancoding.com/sketch -->
    <title>icon-time-personal-active@3x</title>
    <desc>Created with Sketch.</desc>
    <defs></defs>
    <g id="karir-desktop" stroke="none" stroke-width="1" fill="none" fill-rule="evenodd">
        <g id="06-karir" transform="translate(-970.000000, -2994.000000)" fill="#007CA8">
            <g id="benefits" transform="translate(0.000000, 2737.000000)">
                <g id="personal-time-development" transform="translate(970.000000, 257.000000)">
                    <g id="icon-time-personal-active">
                        <path d="M8.01286792,14.5362311 C8.24792598,14.8295802 8.59473295,14.9828349 8.94539332,14.9828349 C9.204,14.9828349 9.46517562,14.8987783 9.6831074,14.7272689 C10.19818,14.3226934 10.2842395,13.5810425 9.8762061,13.071184 L5.78902177,7.96325943 C5.38056023,7.45255189 4.63214224,7.36764623 4.11835414,7.77179717 C3.60370972,8.17679717 3.51765022,8.91844811 3.9256836,9.4283066 L8.01286792,14.5362311 Z M40.9822221,64.3996698 C40.3215762,64.7473585 39.9084049,65.4287264 39.9084049,66.1703774 L39.9084049,71.0876887 L30.5471858,71.0876887 L30.5471858,53.2638679 C30.5471858,53.2184434 30.5386226,53.175566 30.5339129,53.1314151 C33.2171713,52.8631132 35.2860247,51.2893868 36.3748273,49.8043868 C37.3210537,48.5138208 36.9181582,47.3175 36.2857707,46.6849528 C35.5189419,45.9195283 34.3547837,45.7942925 33.5164528,46.3882075 C33.1743556,46.6310377 32.8755022,46.9434906 32.5869245,47.2461792 C31.8997329,47.9649057 31.2506473,48.645 29.9417721,48.645 C29.925074,48.645 29.9079478,48.645 29.8908215,48.6445755 C28.7592032,48.6292925 27.8622148,48.202217 27.3587025,47.4809434 C28.2681074,47.2627358 28.9454514,46.4484906 28.9454514,45.480566 C28.9454514,44.5703774 28.3464601,43.7964623 27.5196894,43.5251887 C27.9354296,42.8722642 28.5502627,42.5190566 29.35691,42.471934 C31.2690581,42.3607075 31.6865109,42.8081604 32.7316415,44.2379717 C33.6230639,45.4584906 35.07109,45.4478774 35.9809231,44.8195755 C36.9010319,44.182783 37.3878462,42.8816038 36.5383832,41.6271226 L36.4471858,41.4921226 C35.3737968,39.9018396 34.1574035,38.099717 30.0573745,37.9434906 C26.2420697,37.8012736 23.1559158,40.0168868 22.2867576,43.4220283 L22.1056473,43.4220283 C20.9611843,43.4220283 20.0299434,44.3453774 20.0299434,45.480566 C20.0299434,46.6153302 20.9611843,47.5386792 22.1056473,47.5386792 L22.2756255,47.5386792 C23.0467358,50.7616981 25.6062569,52.5239151 28.1948926,53.0223113 C28.1786226,53.1004245 28.1696313,53.1810849 28.1696313,53.2638679 L28.1696313,71.0876887 L18.807984,71.0876887 L18.807984,66.1703774 C18.807984,65.4287264 18.3948128,64.7473585 17.7341669,64.3996698 C9.29005951,59.9510377 4.04471118,51.1930189 4.04471118,41.5417925 C4.04471118,27.3523585 15.4002845,15.8090094 29.3586226,15.8090094 C43.3161045,15.8090094 54.6716778,27.3523585 54.6716778,41.5417925 C54.6716778,51.1930189 49.4263295,59.9510377 40.9822221,64.3996698 L40.9822221,64.3996698 Z M26.8697475,45.2419811 C27.0024761,45.2419811 27.1099434,45.3489623 27.1099434,45.480566 C27.1099434,45.6117453 27.0024761,45.7187264 26.8697475,45.7187264 L24.9605965,45.7187264 L25.1429913,46.7813208 C25.5214819,48.9850472 27.3754006,50.4309906 29.8655602,50.4645283 C32.0298926,50.49 33.1148418,49.3395283 33.9193483,48.4976887 C34.158688,48.2467925 34.385611,48.0099057 34.5838476,47.8693868 C34.6891742,47.7938208 34.8749942,47.8596226 34.9824615,47.9666038 C35.2068157,48.1911792 35.0561045,48.5078774 34.8904078,48.7341509 C33.9613077,50.0013679 32.118521,51.3556132 29.7341161,51.3556132 C27.8348128,51.3556132 24.478492,50.3337736 23.945865,46.5045283 L23.8366851,45.7187264 L22.1056473,45.7187264 C21.9733469,45.7187264 21.8658795,45.6117453 21.8658795,45.480566 C21.8658795,45.3489623 21.9733469,45.2419811 22.1056473,45.2419811 L23.8306909,45.2419811 L23.9467213,44.4646698 C24.4476647,41.0943396 27.4379115,39.6768396 29.9867286,39.7617453 C33.1520914,39.8823113 33.9330493,41.0395755 34.9220914,42.5041981 L35.0145733,42.6413208 C35.2534848,42.9945283 35.101061,43.2089151 34.9306546,43.3265094 C34.811627,43.4092925 34.5033541,43.56 34.2177736,43.1698585 C32.9953861,41.4963679 32.0517286,40.4936321 29.2490145,40.6549528 C27.2901974,40.7691509 25.8537315,42.0261792 25.3099724,44.1029717 L25.011119,45.2419811 L26.8697475,45.2419811 Z M39.9084049,75.7116509 C39.8904224,75.7961321 39.8775776,75.8823113 39.870299,75.9706132 C39.4318665,81.3574528 34.8146241,85.5776887 29.3586226,85.5776887 C23.9017649,85.5776887 19.2845225,81.3574528 18.8465181,75.9706132 C18.8392395,75.8818868 18.8263948,75.7948585 18.807984,75.7099528 L18.807984,75.0982075 L39.9084049,75.0982075 L39.9084049,75.7116509 Z M29.3586226,11.7984906 C45.546373,11.7984906 58.7164746,25.1409906 58.7164746,41.5417925 C58.7164746,52.2653774 53.0904949,62.0418396 43.9532017,67.3467453 L43.9532017,73.0931604 L43.9532017,76.131934 C43.9532017,76.3441981 43.9198055,76.5483962 43.8585791,76.740283 C43.0382308,83.9806132 36.7550305,89.5882075 29.3586226,89.5882075 C21.9622148,89.5882075 15.6798708,83.9810377 14.8586662,76.7424057 C14.7965835,76.5496698 14.7631872,76.3446226 14.7631872,76.131934 L14.7631872,73.0931604 L14.7631872,67.3467453 C5.62589405,62.0418396 -8.563135e-05,52.2658019 -8.563135e-05,41.5417925 C-8.563135e-05,25.1409906 13.1704441,11.7984906 29.3586226,11.7984906 Z M46.511053,14.7273538 C45.9964086,14.3227783 45.9103491,13.5811274 46.3183824,13.0712689 L50.4055668,7.96291981 C50.8140283,7.45263679 51.5620181,7.36773113 52.0758062,7.77188208 C52.5904507,8.17645755 52.6765102,8.91810849 52.2684768,9.42839151 L48.1812925,14.536316 C47.9466626,14.8296651 47.5994274,14.9829198 47.2491952,14.9829198 C46.9901604,14.9829198 46.7294129,14.8988632 46.511053,14.7273538 Z M28.5020951,9.87431604 C27.8457308,9.87431604 27.3135319,9.34662736 27.3135319,8.69582547 L27.3135319,1.60323113 C27.3135319,0.952004717 27.8457308,0.424316038 28.5020951,0.424316038 C29.1584594,0.424316038 29.6906582,0.952004717 29.6906582,1.60323113 L29.6906582,8.69582547 C29.6906582,9.34662736 29.1584594,9.87431604 28.5020951,9.87431604 Z" id="Fill-4-Copy"></path>
                    </g>
                </g>
            </g>
        </g>
    </g>
</svg>