<?xml version="1.0" encoding="UTF-8"?>
<svg width="93px" height="90px" viewBox="0 0 93 90" version="1.1" xmlns="http://www.w3.org/2000/svg" xmlns:xlink="http://www.w3.org/1999/xlink">
    <!-- Generator: Sketch 46.1 (44463) - http://www.bohemiancoding.com/sketch -->
    <title>icon-remote-working-active@3x</title>
    <desc>Created with Sketch.</desc>
    <defs></defs>
    <g id="karir-desktop" stroke="none" stroke-width="1" fill="none" fill-rule="evenodd">
        <g id="06-karir" transform="translate(-241.000000, -2994.000000)" fill="#1F8E4E">
            <g id="benefits" transform="translate(0.000000, 2737.000000)">
                <g id="working-remotly" transform="translate(241.000000, 257.000000)">
                    <g id="icon-remote-working-active">
                        <path d="M4.22923944,85.9283239 L5.3688169,75.8208592 L9.31698592,75.8208592 C13.1109296,80.3326901 19.4003662,83.1442394 19.7007887,83.277338 C19.7113521,83.2815634 19.722338,83.282831 19.7324789,83.2874789 C19.824169,83.3259296 19.920507,83.3542394 20.0181127,83.379169 C20.0489577,83.3867746 20.0789577,83.3994507 20.1102254,83.4057887 C20.2386761,83.4315634 20.370507,83.4467746 20.5057183,83.4467746 L71.1351549,83.4467746 C71.2475493,83.4467746 71.3595211,83.4340986 71.4706479,83.4150845 C71.5061408,83.409169 71.5403662,83.4007183 71.5754366,83.3926901 C71.6502254,83.3753662 71.724169,83.3542394 71.7972676,83.3284648 C71.8331831,83.3157887 71.8686761,83.3039577 71.9033239,83.289169 C71.9798028,83.2574789 72.0537465,83.2194507 72.126,83.1776197 C72.1500845,83.1640986 72.1754366,83.1526901 72.1982535,83.1383239 C72.204169,83.1349437 72.2100845,83.1324085 72.2151549,83.1290282 C72.324169,83.0588873 74.909662,81.3911408 77.5661408,79.4124085 C81.2907887,76.6380423 82.8398028,75.0019859 83.4343099,73.7740986 L87.0790986,73.7740986 L88.4485352,85.9283239 L4.22923944,85.9283239 Z M16.6889577,61.2222676 L18.1893803,77.9635352 C15.774169,76.5007183 12.8417746,74.3225493 11.3692394,71.8693099 C11.2754366,71.6635352 10.7481127,69.7976197 16.6889577,61.2222676 L16.6889577,61.2222676 Z M26.4736056,48.0763521 L43.476,48.0763521 L49.6940282,48.0763521 L66.2231831,48.0763521 L72.5476901,48.0763521 L69.3330423,79.4550845 L22.3310704,79.4550845 L19.5186761,48.0763521 L26.4736056,48.0763521 Z M38.4313521,40.8514225 C38.8010704,41.781 39.3203662,42.9370563 39.9938873,44.084662 L32.1440282,44.084662 C34.2009296,42.6856479 36.2992394,41.6094507 38.4313521,40.8514225 L38.4313521,40.8514225 Z M30.2819155,19.7571972 C30.2819155,17.8017042 30.6355775,15.9002958 31.3340282,14.0931127 C31.500507,14.0445211 31.6864225,13.9925493 31.9027606,13.9393099 C31.9086761,13.9380423 31.9150141,13.9363521 31.9213521,13.934662 C32.0413521,13.905507 32.1693803,13.8759296 32.3033239,13.8467746 C32.3261408,13.8417042 32.3489577,13.8370563 32.3721972,13.8319859 C32.6612113,13.7702958 32.9798028,13.7111408 33.3245915,13.6600141 C33.3554366,13.6553662 33.3875493,13.6507183 33.4188169,13.646493 C33.5658592,13.6253662 33.7175493,13.6059296 33.8730423,13.5881831 C33.906,13.5843803 33.9385352,13.5805775 33.9719155,13.5767746 C34.1586761,13.5569155 34.3500845,13.539169 34.5474085,13.5252254 C34.5617746,13.5243803 34.5765634,13.5235352 34.590507,13.5226901 C34.7679718,13.5108592 34.950507,13.5024085 35.136,13.496493 C35.1858592,13.4948028 35.2365634,13.4935352 35.2872676,13.4922676 C35.4626197,13.4884648 35.6409296,13.4876197 35.8226197,13.4901549 C35.8551549,13.4901549 35.8868451,13.4901549 35.9198028,13.4905775 C36.1306479,13.4948028 36.3461408,13.5040986 36.5645915,13.5180423 C36.6140282,13.5214225 36.6643099,13.5260704 36.714169,13.5298732 C36.887831,13.5425493 37.0636056,13.5594507 37.2410704,13.5788873 C37.3031831,13.5860704 37.3657183,13.592831 37.4282535,13.6008592 C37.6543099,13.629169 37.8824789,13.6617042 38.1140282,13.7022676 C39.9064225,14.0200141 41.3012113,14.5993099 42.7779718,15.2124085 C44.9075493,16.095507 47.3210704,17.0977606 51.1145915,17.3859296 C51.5493803,17.4188873 51.9757183,17.4408592 52.3969859,17.4556479 C52.5119155,17.4598732 52.6251549,17.4594507 52.739662,17.4624085 C52.9821972,17.4679014 53.226,17.4759296 53.4638873,17.4759296 C53.5352958,17.4759296 53.6037465,17.4721268 53.6747324,17.4717042 C53.8031831,17.4704366 53.9307887,17.4666338 54.0588169,17.4636761 C54.3795211,17.457338 54.6972676,17.4467746 55.0103662,17.4302958 C55.0931831,17.4256479 55.176,17.4201549 55.2592394,17.4150845 C55.6386761,17.3914225 56.0117746,17.361 56.3789577,17.3233944 C56.4030423,17.3212817 56.4267042,17.3187465 56.4507887,17.3162113 C58.2638873,17.1260704 59.9240282,16.772831 61.4333239,16.3101549 C61.6851549,17.4362113 61.8119155,18.5893099 61.8119155,19.7571972 C61.8119155,28.4500141 54.7399437,35.5219859 46.0471268,35.5219859 C37.3543099,35.5219859 30.2819155,28.4500141 30.2819155,19.7571972 L30.2819155,19.7571972 Z M39.7838873,5.28494366 C39.7936056,5.28071831 39.8037465,5.27733803 39.8134648,5.27353521 L39.8134648,5.27353521 C43.926,3.55973239 51.7864225,4.46142254 55.3889577,7.06001408 L55.3893803,7.05959155 C55.404169,7.07015493 55.4202254,7.08029577 55.4354366,7.09128169 C58.3936056,9.25973239 62.489662,9.82592958 65.8517746,9.84832394 C64.9699437,10.4411408 63.9351549,11.0322676 62.7529014,11.5621268 L62.0033239,11.865507 C59.9992394,12.6767746 57.8688169,13.1829718 55.637831,13.3836761 C55.5900845,13.3879014 55.5419155,13.3917042 55.4937465,13.395507 C55.1257183,13.4263521 54.7538873,13.4470563 54.3799437,13.4614225 C54.2882535,13.4643803 54.1969859,13.4690282 54.1044507,13.4715634 C53.7567042,13.4808592 53.4064225,13.4804366 53.0548732,13.4753662 C52.9555775,13.4736761 52.8592394,13.4753662 52.7590986,13.472831 C52.3150141,13.4614225 51.8679718,13.4402958 51.4175493,13.4056479 C48.2607887,13.1660704 46.3407887,12.369169 44.3083944,11.5253662 C42.6976901,10.857338 41.0329014,10.1660704 38.8107887,9.77269014 C38.5002254,9.71733803 38.1943099,9.67339437 37.8913521,9.63578873 C37.8038873,9.62522535 37.7185352,9.61804225 37.631493,9.60832394 C37.4143099,9.58466197 37.1983944,9.56353521 36.9854366,9.54790141 C36.894169,9.54114085 36.804169,9.53649296 36.7137465,9.531 C36.5024789,9.51874648 36.2937465,9.5094507 36.0875493,9.50438028 C36.0106479,9.50226761 35.934169,9.50057746 35.8581127,9.49973239 C35.7774085,9.49888732 35.6945915,9.49466197 35.6147324,9.49466197 C35.5036056,9.49466197 35.3988169,9.501 35.2893803,9.50269014 C35.1706479,9.50480282 35.0527606,9.50691549 34.9361408,9.51114085 C34.7502254,9.51790141 34.5685352,9.52719718 34.3885352,9.53860563 C34.2934648,9.54452113 34.199662,9.55128169 34.1062817,9.55846479 C34.0107887,9.56607042 33.9102254,9.57029577 33.8164225,9.57916901 C35.0451549,8.11888732 36.9372676,6.48452113 39.7838873,5.28494366 L39.7838873,5.28494366 Z M55.4645915,41.0749437 C57.3972676,41.8038169 59.2103662,42.795507 60.9583944,44.084662 L53.567831,44.084662 C54.3457183,42.9974789 54.9938873,41.919169 55.4645915,41.0749437 L55.4645915,41.0749437 Z M42.432338,39.8107183 C42.5320563,39.7942394 42.6321972,39.7811408 42.7319155,39.7663521 C42.9385352,39.7350845 43.1455775,39.7033944 43.3526197,39.6780423 C43.4092394,39.6712817 43.4662817,39.6666338 43.5229014,39.6602958 C43.7650141,39.6324085 44.0079718,39.6062113 44.250507,39.5867746 C44.3121972,39.5817042 44.3743099,39.5795915 44.4364225,39.5749437 C44.6709296,39.5580423 44.9062817,39.5419859 45.1416338,39.5322676 C45.4420563,39.5204366 45.7433239,39.5136761 46.0471268,39.5136761 C46.4861408,39.5136761 46.914169,39.5242394 47.3379718,39.5394507 C47.4748732,39.5440986 47.609662,39.5517042 47.7448732,39.5584648 C48.0347324,39.5724085 48.3212113,39.5901549 48.6043099,39.6112817 C48.7526197,39.6226901 48.9009296,39.6336761 49.0479718,39.6471972 C49.3450141,39.6738169 49.637831,39.7063521 49.9281127,39.7418451 C50.0375493,39.7553662 50.1495211,39.765507 50.2585352,39.7802958 C50.6316338,39.8301549 50.9983944,39.8888873 51.360507,39.9531127 C51.4019155,39.9607183 51.4424789,39.9695915 51.4834648,39.9771972 C50.6362817,41.3842394 49.4937465,43.0312817 48.3207887,44.084662 L44.9244507,44.084662 C43.8372676,42.9894507 42.9338873,41.2566338 42.3279718,39.8297324 C42.3626197,39.8238169 42.3976901,39.8166338 42.432338,39.8107183 L42.432338,39.8107183 Z M79.7903662,72.1317042 C79.3137465,72.9484648 76.9243099,75.0121268 73.5554366,77.4053662 L75.1703662,61.6422676 C78.3072676,66.7169155 79.8575493,70.2340986 79.7903662,72.1317042 L79.7903662,72.1317042 Z M92.6650141,87.7004366 L90.8455775,71.5545211 C90.732338,70.545507 89.8783944,69.7824085 88.8626197,69.7824085 L83.4993803,69.7824085 C82.8486761,67.089169 80.8940282,62.8553662 75.8193803,55.3008592 L76.7430423,46.2839577 C76.8009296,45.7219859 76.6175493,45.1625493 76.2393803,44.7429718 C75.8607887,44.3238169 75.3229014,44.084662 74.7579718,44.084662 L67.0433239,44.084662 C63.9829014,41.0605775 60.780507,38.8904366 57.2447324,37.4935352 L57.2967042,37.3849437 L55.7819155,36.9383239 C61.7603662,33.5377606 65.8040282,27.1126901 65.8040282,19.7571972 C65.8040282,18.0831127 65.592338,16.4326901 65.1795211,14.8283239 C70.3369859,12.2867746 72.9174085,8.79832394 73.092338,8.55621127 C73.5702254,7.89198592 73.5947324,7.00339437 73.1536056,6.31423944 C72.7129014,5.62423944 71.8965634,5.27438028 71.0924789,5.43029577 C68.6354366,5.90607042 61.4569859,6.55550704 57.7944507,3.87198592 C57.762338,3.84832394 57.7276901,3.82592958 57.6947324,3.80226761 C54.2937465,1.31522535 50.267831,0.000295774648 46.0471268,0.000295774648 C43.3530423,0.000295774648 40.7375493,0.535647887 38.2729014,1.59114085 C38.2602254,1.5966338 38.2467042,1.60128169 38.2344507,1.60635211 C30.4133239,4.9025493 28.2119155,11.0288873 27.9499437,11.8431127 C26.8513521,14.3500141 26.2902254,17.0107183 26.2902254,19.7571972 C26.2902254,27.3032535 30.5447324,33.8724085 36.779662,37.1986056 C32.9552958,38.6086056 29.256,40.911 25.7117746,44.084662 L17.3358592,44.084662 C16.7751549,44.084662 16.2410704,44.3200141 15.8629014,44.7336761 C15.4847324,45.1469155 15.2975493,45.7004366 15.347831,46.2586056 L16.1447324,55.1479014 C9.91825352,63.5107183 7.20895775,68.5693099 7.34670423,71.829169 L3.58571831,71.829169 C2.56994366,71.829169 1.71642254,72.5922676 1.60233803,73.6012817 L0.0127605634,87.7004366 C-0.0510422535,88.2649437 0.128957746,88.8302958 0.507126761,89.2540986 C0.886140845,89.6779014 1.42740845,89.9200141 1.99571831,89.9200141 L90.6816338,89.9200141 C91.2499437,89.9200141 91.7912113,89.6779014 92.1698028,89.2540986 C92.5483944,88.8302958 92.7283944,88.2653662 92.6650141,87.7004366 L92.6650141,87.7004366 Z M39.7349577,63.4530845 L41.4373521,63.4530845 L41.5518592,62.6794225 C42.0462254,59.324493 44.9862254,57.9051972 47.5121408,57.9981549 C50.6359437,58.1185775 51.4066479,59.2704085 52.3827042,60.7281549 L52.4739718,60.8650563 C52.7097465,61.2161831 52.5593239,61.4295634 52.3911549,61.5466056 C52.2732676,61.6294225 51.9686197,61.7785775 51.6876338,61.3906901 C50.4812958,59.7250563 49.5517183,58.7261831 46.7845352,58.8875915 C44.850169,59.0012535 43.4334085,60.2523803 42.8963662,62.3198451 L42.6027042,63.4530845 L44.4360845,63.4530845 C44.5670704,63.4530845 44.6735493,63.5595634 44.6735493,63.6905493 C44.6735493,63.8211127 44.5670704,63.927169 44.4360845,63.927169 L42.5524225,63.927169 L42.7324225,64.9847746 C43.1055211,67.1781549 44.9346761,68.6177324 47.3929859,68.6511127 C49.4993239,68.673507 50.5987606,67.5313944 51.3931268,66.693507 C51.6293239,66.4437887 51.8532676,66.2080141 52.0489014,66.0677324 C52.1528451,65.9942113 52.3362254,66.0584366 52.4427042,66.1649155 C52.6641127,66.3880141 52.5149577,66.7032254 52.3514366,66.9288592 C51.4341127,68.1901268 49.6163662,69.5380141 47.2632676,69.5380141 C45.3889014,69.5380141 42.0762254,68.5209718 41.5505915,64.7092817 L41.4428451,63.927169 L39.7349577,63.927169 C39.6039718,63.927169 39.497493,63.8211127 39.497493,63.6905493 C39.497493,63.5595634 39.6039718,63.4530845 39.7349577,63.4530845 M39.7349577,65.7385775 L39.9022817,65.7385775 C40.8153803,69.5874507 44.268338,71.3494225 47.2632676,71.3494225 C50.2966479,71.3494225 52.637493,69.6161831 53.8163662,67.9940704 C54.750169,66.7095634 54.3529859,65.5188592 53.7284789,64.8892817 C52.9729859,64.1274507 51.8228451,64.0023803 50.9955211,64.5939296 C50.6579155,64.8351972 50.3629859,65.1466056 50.0781972,65.4478732 C49.3915775,66.1729437 48.7573521,66.8650563 47.4179155,66.8397042 C46.3007324,66.824493 45.4150986,66.3994225 44.9186197,65.6811127 C45.816507,65.4639296 46.4849577,64.6539296 46.4849577,63.6905493 C46.4849577,62.7846338 45.893831,62.0143521 45.077493,61.7443521 C45.4877746,61.094493 46.0949577,60.7429437 46.8910141,60.6960423 C48.7725634,60.5849155 49.1896056,61.0306901 50.2210141,62.4537887 C51.1007324,63.6685775 52.5297465,63.6592817 53.4276338,63.0322394 C54.3360845,62.3988592 54.8160845,61.1037887 53.9777746,59.8551972 L53.8877746,59.720831 C52.8284789,58.1380141 51.6276338,56.3443521 47.5818592,56.1884366 C43.8284789,56.0401268 40.7714366,58.2525211 39.9136901,61.6416761 L39.7349577,61.6416761 C38.6050986,61.6416761 37.6860845,62.5606901 37.6860845,63.6905493 C37.6860845,64.8195634 38.6050986,65.7385775 39.7349577,65.7385775"></path>
                    </g>
                </g>
            </g>
        </g>
    </g>
</svg>