<?xml version="1.0" encoding="UTF-8"?>
<svg width="62px" height="61px" viewBox="0 0 62 61" version="1.1" xmlns="http://www.w3.org/2000/svg" xmlns:xlink="http://www.w3.org/1999/xlink">
    <!-- Generator: Sketch 46.1 (44463) - http://www.bohemiancoding.com/sketch -->
    <title>icon-language-javanesse@3x</title>
    <desc>Created with Sketch.</desc>
    <defs>
        <linearGradient x1="101.101635%" y1="6.00523874%" x2="-10.0346016%" y2="101.685423%" id="linearGradient-1">
            <stop stop-color="#45AE56" offset="0%"></stop>
            <stop stop-color="#007DAB" offset="100%"></stop>
        </linearGradient>
        <linearGradient x1="3.32962635e-05%" y1="50.0002331%" x2="99.9997003%" y2="50.0002331%" id="linearGradient-2">
            <stop stop-color="#45AE56" offset="0%"></stop>
            <stop stop-color="#007DAB" offset="100%"></stop>
        </linearGradient>
        <path d="M36.5068006,53.8404604 C21.6947126,53.8404604 9.64408211,41.7900088 9.64408211,26.9779208 C9.64408211,12.1658328 21.6945337,0.115202346 36.5068006,0.115202346 C51.3190674,0.115202346 63.3695191,12.165654 63.3695191,26.9779208 C63.3693402,41.7900088 51.3188886,53.8404604 36.5068006,53.8404604 Z" id="path-3"></path>
    </defs>
    <g id="aset-kripto-desktop" stroke="none" stroke-width="1" fill="none" fill-rule="evenodd">
        <g id="03-aset-kripto" transform="translate(-1175.000000, -214.000000)">
            <g id="hero">
                <g id="languages" transform="translate(1004.000000, 214.000000)">
                    <g id="javanesse-icon" transform="translate(165.000000, 0.000000)">
                        <g id="icon-language-javanesse" transform="translate(7.000000, 0.000000)">
                            <g id="icon-language-02" transform="translate(-6.439883, 0.000000)">
                                <circle id="XMLID_16_" fill="url(#linearGradient-1)" fill-rule="nonzero" cx="36.5068006" cy="30.5556334" r="30.4246891"></circle>
                                <g id="XMLID_623_" transform="translate(9.123167, 3.219941)" fill-rule="nonzero">
                                    <path d="M27.3836334,54.1982317 C12.5715455,54.1982317 0.520914956,42.1477801 0.520914956,27.3356921 C0.520914956,12.5236041 12.5713666,0.472973607 27.3836334,0.472973607 C42.1959003,0.472973607 54.2463519,12.5234252 54.2463519,27.3356921 C54.246173,42.1477801 42.1957214,54.1982317 27.3836334,54.1982317 Z" id="Shape" fill="url(#linearGradient-2)"></path>
                                    <path d="M27.3836334,0.830923754 C42.0218446,0.830923754 53.8884018,12.6974809 53.8884018,27.3356921 C53.8884018,41.9739032 42.0218446,53.8406393 27.3836334,53.8406393 C12.7454223,53.8406393 0.878865103,41.9740821 0.878865103,27.335871 C0.878865103,12.6976598 12.7454223,0.830923754 27.3836334,0.830923754 L27.3836334,0.830923754 Z M27.3836334,0.115381232 C20.112827,0.115381232 13.2772493,2.94678299 8.13589736,8.08795601 C2.99472434,13.229129 0.163143695,20.0648856 0.163143695,27.3356921 C0.163143695,34.6064985 2.99454545,41.4420762 8.13589736,46.5834282 C13.2770704,51.7246012 20.112827,54.5561818 27.3836334,54.5561818 C34.6544399,54.5561818 41.4900176,51.7247801 46.6313695,46.5834282 C51.7725425,41.4422551 54.6039443,34.6064985 54.6039443,27.3356921 C54.6039443,20.0648856 51.7725425,13.2293079 46.6313695,8.08795601 C41.4900176,2.94678299 34.6544399,0.115381232 27.3836334,0.115381232 L27.3836334,0.115381232 Z" id="Shape" fill="#F1F2F2"></path>
                                </g>
                                <g id="XMLID_784_" transform="translate(0.000000, 3.577713)">
                                    <mask id="mask-4" fill="white">
                                        <use xlink:href="#path-3"></use>
                                    </mask>
                                    <use id="Shape-Copy-2" fill="url(#linearGradient-2)" fill-rule="nonzero" xlink:href="#path-3"></use>
                                    <g id="XMLID_625_" mask="url(#mask-4)">
                                        <g transform="translate(0.000000, 11.269795)">
                                            <path d="M35.2088065,34.3632141 C35.4299091,34.0938123 35.563,33.7496364 35.563,33.3746921 C35.563,32.6221202 35.0275953,31.9924428 34.3175982,31.8462933 C34.2190323,30.9985543 33.6342551,30.2985748 32.8500205,30.0306041 C33.371651,29.6302581 33.7101026,29.0025484 33.7101026,28.2957713 C33.7101026,28.1378152 33.5820205,28.009912 33.4242434,28.009912 L32.2995894,28.009912 C30.1987566,27.0094047 29.376956,25.5019355 29.376956,22.6522874 L29.376956,16.4515748 C29.376956,13.8083607 27.2265718,11.6577977 24.5831789,11.6577977 L24.434346,11.6577977 L24.434346,9.34641642 C24.434346,9.18846041 24.3062639,9.06055718 24.1484868,9.06055718 L22.3406686,9.06055718 L21.8701994,0.329686217 C21.8619707,0.177991202 21.7365718,0.0592111437 21.5846979,0.0592111437 L19.2289531,0.0592111437 C19.0770792,0.0592111437 18.9516804,0.177991202 18.9434516,0.329686217 L18.4729824,9.06055718 L16.6651642,9.06055718 C16.5072082,9.06055718 16.379305,9.18846041 16.379305,9.34641642 L16.379305,11.6577977 L16.2304721,11.6577977 C13.5872581,11.6577977 11.436695,13.8083607 11.436695,16.4515748 L11.436695,22.6522874 C11.436695,25.5019355 10.6148944,27.0094047 8.51406158,28.0097331 L7.38958651,28.0097331 C7.23180938,28.0097331 7.10372727,28.1376364 7.10372727,28.2955924 C7.10372727,29.0023695 7.442,29.6302581 7.9636305,30.0304252 C7.17939589,30.298217 6.59461877,30.9981965 6.49605279,31.8461144 C5.78605572,31.9922639 5.25065103,32.6219413 5.25065103,33.3745132 C5.25065103,33.7494575 5.38374194,34.0938123 5.60484457,34.3630352 L0.0738797654,34.3630352 L0.0738797654,34.9347537 L6.81107038,34.9347537 L34.0025806,34.9347537 L40.7397713,34.9347537 L40.7397713,34.3630352 L35.2088065,34.3630352 L35.2088065,34.3632141 Z" id="XMLID_715_" fill="#C6C6C5" fill-rule="nonzero"></path>
                                            <path d="M22.0700147,9.63227566 L18.744173,9.63227566 C18.6656422,9.63227566 18.5906891,9.60007625 18.5366657,9.54301173 C18.4828211,9.4861261 18.4545572,9.40938416 18.4586716,9.33103226 L18.9436305,0.329686217 C18.9518592,0.177991202 19.0772581,0.0592111437 19.229132,0.0592111437 L21.5848768,0.0592111437 C21.7367507,0.0592111437 21.8621496,0.177991202 21.8703783,0.329686217 L22.3555161,9.33103226 C22.3598094,9.40938416 22.3315455,9.4861261 22.277522,9.54301173 C22.2234985,9.60007625 22.1483666,9.63227566 22.0700147,9.63227566 Z M19.0457742,9.06055718 L21.7682346,9.06055718 L21.314044,0.630929619 L19.5001437,0.630929619 L19.0457742,9.06055718 Z" id="XMLID_712_" fill="#434356" fill-rule="nonzero"></path>
                                            <path d="M24.1486657,12.229695 L16.665522,12.229695 C16.5077449,12.229695 16.3796628,12.1017918 16.3796628,11.9438358 L16.3796628,9.34659531 C16.3796628,9.1886393 16.5077449,9.06073607 16.665522,9.06073607 L24.1486657,9.06073607 C24.3064428,9.06073607 24.4345249,9.1886393 24.4345249,9.34659531 L24.4345249,11.9438358 C24.4345249,12.1016129 24.3064428,12.229695 24.1486657,12.229695 Z M16.9513812,11.6577977 L23.8628065,11.6577977 L23.8628065,9.63227566 L16.9513812,9.63227566 L16.9513812,11.6577977 Z" id="XMLID_709_" fill="#434356" fill-rule="nonzero"></path>
                                            <path d="M32.2321496,28.5816305 L8.58185924,28.5816305 C8.4478739,28.5816305 8.33177713,28.48861 8.30279765,28.3576657 C8.27381818,28.2267214 8.33946921,28.0934516 8.46093255,28.036566 C10.6027302,27.0362375 11.4372317,25.5266217 11.4372317,22.6522874 L11.4372317,16.4515748 C11.4372317,13.8083607 13.5876158,11.6577977 16.2310088,11.6577977 L24.5833578,11.6577977 C27.2265718,11.6577977 29.3771349,13.8083607 29.3771349,16.4515748 L29.3771349,22.6522874 C29.3771349,25.5268006 30.2114575,27.0364164 32.353434,28.036566 C32.4748974,28.0932727 32.5405484,28.2267214 32.5115689,28.3576657 C32.4822317,28.4884311 32.3661349,28.5816305 32.2321496,28.5816305 Z M9.67807038,28.0097331 L31.1359384,28.0097331 C29.494305,26.9065455 28.8052375,25.2776129 28.8052375,22.6522874 L28.8052375,16.4515748 C28.8052375,14.1235572 26.9111965,12.2295161 24.5831789,12.2295161 L16.2308299,12.2295161 C13.9028123,12.2295161 12.0087713,14.1235572 12.0087713,16.4515748 L12.0087713,22.6522874 C12.0087713,25.2777918 11.3197038,26.9065455 9.67807038,28.0097331 Z" id="XMLID_706_" fill="#434356" fill-rule="nonzero"></path>
                                            <path d="M34.0025806,34.9349326 L6.81142815,34.9349326 C5.95098827,34.9349326 5.2510088,34.2349531 5.2510088,33.3746921 C5.2510088,32.5142522 5.95098827,31.8142727 6.81142815,31.8142727 L34.0025806,31.8142727 C34.8630205,31.8142727 35.563,32.5142522 35.563,33.3746921 C35.563,34.2349531 34.8630205,34.9349326 34.0025806,34.9349326 Z M6.81142815,32.3859912 C6.26636364,32.3859912 5.82290616,32.8294487 5.82290616,33.3745132 C5.82290616,33.9195777 6.26636364,34.3630352 6.81142815,34.3630352 L34.0025806,34.3630352 C34.5476452,34.3630352 34.9911026,33.9195777 34.9911026,33.3745132 C34.9911026,32.8294487 34.5476452,32.3859912 34.0025806,32.3859912 L6.81142815,32.3859912 Z" id="XMLID_703_" fill="#434356" fill-rule="nonzero"></path>
                                            <path d="M31.5217947,30.4837214 L9.29203519,30.4837214 C8.08545161,30.4837214 7.10390616,29.502176 7.10390616,28.2955924 C7.10390616,28.1376364 7.23198827,28.0097331 7.3897654,28.0097331 L33.4240645,28.0097331 C33.5818416,28.0097331 33.7099238,28.1376364 33.7099238,28.2955924 C33.7099238,29.502176 32.7283783,30.4837214 31.5217947,30.4837214 Z M7.70102639,28.5816305 C7.83644282,29.3370645 8.49831965,29.9121818 9.29203519,29.9121818 L31.5217947,29.9121818 C32.3155103,29.9121818 32.9773871,29.3370645 33.1129824,28.5816305 L7.70102639,28.5816305 Z" id="XMLID_700_" fill="#434356" fill-rule="nonzero"></path>
                                            <path d="M34.0476598,32.3859912 L6.76634897,32.3859912 C6.60857185,32.3859912 6.48048974,32.258088 6.48048974,32.100132 C6.48048974,30.8935484 7.46203519,29.9120029 8.66861877,29.9120029 L32.14539,29.9120029 C33.3519736,29.9120029 34.3335191,30.8935484 34.3335191,32.100132 C34.3335191,32.258088 34.2056158,32.3859912 34.0476598,32.3859912 Z M7.07743109,31.8142727 L33.7365777,31.8142727 C33.6011613,31.0588387 32.9391056,30.4839003 32.14539,30.4839003 L8.66861877,30.4839003 C7.87490323,30.4837214 7.21302639,31.0588387 7.07743109,31.8142727 Z" id="XMLID_697_" fill="#434356" fill-rule="nonzero"></path>
                                            <g id="XMLID_681_" stroke-width="1" fill="none" fill-rule="evenodd" transform="translate(12.521994, 23.970674)">
                                                <path d="M1.46560997,3.10706452 C1.38439589,3.10706452 1.3071173,3.07253959 1.25273607,3.01207625 L0.154378299,1.78760411 C0.0570645161,1.67902053 0.0570645161,1.51444575 0.154378299,1.40586217 L1.25273607,0.181390029 C1.30693842,0.120926686 1.38439589,0.0864017595 1.46560997,0.0864017595 L1.46560997,0.0864017595 C1.54682405,0.0864017595 1.62410264,0.120926686 1.67848387,0.181390029 L2.77666276,1.40586217 C2.87397654,1.51444575 2.87397654,1.67902053 2.77666276,1.78760411 L1.67848387,3.01207625 C1.62410264,3.07253959 1.54664516,3.10706452 1.46560997,3.10706452 Z M0.751319648,1.59673314 L1.46560997,2.39295308 L2.17972141,1.59673314 L1.46560997,0.800513196 L0.751319648,1.59673314 Z" id="XMLID_694_" fill="#434356" fill-rule="nonzero"></path>
                                                <path d="M5.74526979,3.10706452 C5.66405572,3.10706452 5.58677713,3.07253959 5.53239589,3.01207625 L4.43403812,1.78760411 C4.33672434,1.67902053 4.33672434,1.51444575 4.43403812,1.40586217 L5.53239589,0.181390029 C5.58659824,0.120926686 5.66405572,0.0864017595 5.74526979,0.0864017595 C5.82648387,0.0864017595 5.90376246,0.120926686 5.9581437,0.181390029 L7.05632258,1.40586217 C7.15363636,1.51444575 7.15363636,1.67902053 7.05632258,1.78760411 L5.9581437,3.01207625 C5.90376246,3.07253959 5.82630499,3.10706452 5.74526979,3.10706452 Z M5.03097947,1.59673314 L5.74526979,2.39295308 L6.45938123,1.59673314 L5.74526979,0.800513196 L5.03097947,1.59673314 Z" id="XMLID_691_" fill="#434356" fill-rule="nonzero"></path>
                                                <path d="M10.0249296,3.10706452 C9.94371554,3.10706452 9.86643695,3.07253959 9.81205572,3.01207625 L8.71369795,1.78760411 C8.61638416,1.67902053 8.61638416,1.51444575 8.71369795,1.40586217 L9.81205572,0.181390029 C9.86625806,0.120926686 9.94371554,0.0864017595 10.0249296,0.0864017595 C10.1061437,0.0864017595 10.1834223,0.120926686 10.2378035,0.181390029 L11.3359824,1.40586217 C11.4332962,1.51444575 11.4332962,1.67902053 11.3359824,1.78760411 L10.2378035,3.01207625 C10.1834223,3.07253959 10.1059648,3.10706452 10.0249296,3.10706452 Z M9.3106393,1.59673314 L10.0249296,2.39295308 L10.7392199,1.59673314 L10.0249296,0.800513196 L9.3106393,1.59673314 Z" id="XMLID_687_" fill="#434356" fill-rule="nonzero"></path>
                                                <path d="M14.3045894,3.10706452 L14.3045894,3.10706452 C14.2233754,3.10706452 14.1460968,3.07253959 14.0917155,3.01207625 L12.9935367,1.78760411 C12.8962229,1.67902053 12.8962229,1.51444575 12.9935367,1.40586217 L14.0917155,0.181390029 C14.1459179,0.120926686 14.2233754,0.0864017595 14.3045894,0.0864017595 C14.3858035,0.0864017595 14.4630821,0.120926686 14.5174633,0.181390029 L15.6156422,1.40586217 C15.712956,1.51444575 15.712956,1.67902053 15.6156422,1.78760411 L14.5174633,3.01207625 C14.4630821,3.07253959 14.3856246,3.10706452 14.3045894,3.10706452 Z M13.5902991,1.59673314 L14.3045894,2.39295308 L15.0188798,1.59673314 L14.3045894,0.800513196 L13.5902991,1.59673314 Z" id="XMLID_682_" fill="#434356" fill-rule="nonzero"></path>
                                            </g>
                                            <g id="XMLID_660_" stroke-width="1" fill="none" fill-rule="evenodd" transform="translate(12.521994, 17.351906)">
                                                <path d="M1.46560997,3.11082111 C1.38439589,3.11082111 1.3071173,3.07629619 1.25273607,3.01583284 L0.154378299,1.7913607 C0.0570645161,1.68277713 0.0570645161,1.51820235 0.154378299,1.40961877 L1.25273607,0.185146628 C1.30693842,0.124683284 1.38439589,0.0901583578 1.46560997,0.0901583578 L1.46560997,0.0901583578 C1.54682405,0.0901583578 1.62410264,0.124683284 1.67848387,0.185146628 L2.77666276,1.40961877 C2.87397654,1.51820235 2.87397654,1.68277713 2.77666276,1.7913607 L1.67848387,3.01583284 C1.62410264,3.0761173 1.54664516,3.11082111 1.46560997,3.11082111 Z M0.751319648,1.60048974 L1.46560997,2.39670968 L2.17972141,1.60048974 L1.46560997,0.804269795 L0.751319648,1.60048974 Z" id="XMLID_676_" fill="#434356" fill-rule="nonzero"></path>
                                                <path d="M5.74526979,3.11082111 C5.66405572,3.11082111 5.58677713,3.07629619 5.53239589,3.01583284 L4.43403812,1.7913607 C4.33672434,1.68277713 4.33672434,1.51820235 4.43403812,1.40961877 L5.53239589,0.185146628 C5.58659824,0.124683284 5.66405572,0.0901583578 5.74526979,0.0901583578 C5.82648387,0.0901583578 5.90376246,0.124683284 5.9581437,0.185146628 L7.05632258,1.40961877 C7.15363636,1.51820235 7.15363636,1.68277713 7.05632258,1.7913607 L5.9581437,3.01583284 C5.90376246,3.0761173 5.82630499,3.11082111 5.74526979,3.11082111 Z M5.03097947,1.60048974 L5.74526979,2.39670968 L6.45938123,1.60048974 L5.74526979,0.804269795 L5.03097947,1.60048974 Z" id="XMLID_672_" fill="#434356" fill-rule="nonzero"></path>
                                                <path d="M10.0249296,3.11082111 C9.94371554,3.11082111 9.86643695,3.07629619 9.81205572,3.01583284 L8.71369795,1.7913607 C8.61638416,1.68277713 8.61638416,1.51820235 8.71369795,1.40961877 L9.81205572,0.185146628 C9.86625806,0.124683284 9.94371554,0.0901583578 10.0249296,0.0901583578 C10.1061437,0.0901583578 10.1834223,0.124683284 10.2378035,0.185146628 L11.3359824,1.40961877 C11.4332962,1.51820235 11.4332962,1.68277713 11.3359824,1.7913607 L10.2378035,3.01583284 C10.1834223,3.0761173 10.1059648,3.11082111 10.0249296,3.11082111 Z M9.3106393,1.60048974 L10.0249296,2.39670968 L10.7392199,1.60048974 L10.0249296,0.804269795 L9.3106393,1.60048974 Z" id="XMLID_667_" fill="#434356" fill-rule="nonzero"></path>
                                                <path d="M14.3045894,3.11082111 L14.3045894,3.11082111 C14.2233754,3.11082111 14.1460968,3.07629619 14.0917155,3.01583284 L12.9935367,1.7913607 C12.8962229,1.68277713 12.8962229,1.51820235 12.9935367,1.40961877 L14.0917155,0.185146628 C14.1459179,0.124683284 14.2233754,0.0901583578 14.3045894,0.0901583578 C14.3858035,0.0901583578 14.4630821,0.124683284 14.5174633,0.185146628 L15.6156422,1.40961877 C15.712956,1.51820235 15.712956,1.68277713 15.6156422,1.7913607 L14.5174633,3.01583284 C14.4630821,3.0761173 14.3856246,3.11082111 14.3045894,3.11082111 Z M13.5902991,1.60048974 L14.3045894,2.39670968 L15.0188798,1.60048974 L14.3045894,0.804269795 L13.5902991,1.60048974 Z" id="XMLID_663_" fill="#434356" fill-rule="nonzero"></path>
                                            </g>
                                            <g id="XMLID_644_" stroke-width="1" fill="none" fill-rule="evenodd" transform="translate(14.668622, 20.571848)">
                                                <path d="M1.45881232,3.02334604 C1.37759824,3.02334604 1.30031965,2.98882111 1.24593842,2.92835777 L0.147759531,1.70388563 C0.0504457478,1.59530205 0.0504457478,1.43072727 0.147759531,1.3221437 L1.24593842,0.0978504399 C1.30014076,0.0373870968 1.37759824,0.00286217009 1.45881232,0.00286217009 C1.54002639,0.00286217009 1.61730499,0.0373870968 1.67168622,0.0978504399 L2.77004399,1.3221437 C2.86735777,1.43072727 2.86735777,1.59530205 2.77004399,1.70388563 L1.67168622,2.92835777 C1.61730499,2.98882111 1.54002639,3.02334604 1.45881232,3.02334604 Z M0.744521994,1.51319355 L1.45863343,2.30941349 L2.17292375,1.51319355 L1.45863343,0.716973607 L0.744521994,1.51319355 Z" id="XMLID_656_" fill="#434356" fill-rule="nonzero"></path>
                                                <path d="M5.73847214,3.02334604 C5.65725806,3.02334604 5.57997947,2.98882111 5.52559824,2.92835777 L4.42741935,1.70388563 C4.33010557,1.59530205 4.33010557,1.43072727 4.42741935,1.3221437 L5.52559824,0.0978504399 C5.57980059,0.0373870968 5.65725806,0.00286217009 5.73847214,0.00286217009 C5.81968622,0.00286217009 5.89696481,0.0373870968 5.95134604,0.0978504399 L7.04970381,1.3221437 C7.1470176,1.43072727 7.1470176,1.59530205 7.04970381,1.70388563 L5.95134604,2.92835777 C5.89696481,2.98882111 5.81968622,3.02334604 5.73847214,3.02334604 Z M5.02418182,1.51319355 L5.73829326,2.30941349 L6.45258358,1.51319355 L5.73829326,0.716973607 L5.02418182,1.51319355 Z" id="XMLID_651_" fill="#434356" fill-rule="nonzero"></path>
                                                <path d="M10.0179531,3.02334604 C9.936739,3.02334604 9.85946041,2.98882111 9.80507918,2.92835777 L8.70690029,1.70388563 C8.60958651,1.59530205 8.60958651,1.43072727 8.70690029,1.3221437 L9.80507918,0.0978504399 C9.85928152,0.0373870968 9.936739,0.00286217009 10.0179531,0.00286217009 C10.0991672,0.00286217009 10.1766246,0.0373870968 10.230827,0.0978504399 L11.3291848,1.3221437 C11.4264985,1.43072727 11.4264985,1.59530205 11.3291848,1.70388563 L10.230827,2.92835777 C10.1766246,2.98882111 10.0991672,3.02334604 10.0179531,3.02334604 Z M9.30384164,1.51319355 L10.0179531,2.30941349 L10.7322434,1.51319355 L10.0179531,0.716973607 L9.30384164,1.51319355 Z" id="XMLID_646_" fill="#434356" fill-rule="nonzero"></path>
                                            </g>
                                            <g id="XMLID_627_" stroke-width="1" fill="none" fill-rule="evenodd" transform="translate(14.668622, 13.953079)">
                                                <path d="M1.45881232,3.14534604 C1.37759824,3.14534604 1.30031965,3.11082111 1.24593842,3.05035777 L0.147759531,1.82606452 C0.0504457478,1.71748094 0.0504457478,1.55290616 0.147759531,1.44432258 L1.24593842,0.21985044 C1.30014076,0.159387097 1.37759824,0.12486217 1.45881232,0.12486217 C1.54002639,0.12486217 1.61730499,0.159387097 1.67168622,0.21985044 L2.77004399,1.44432258 C2.86735777,1.55290616 2.86735777,1.71748094 2.77004399,1.82606452 L1.67168622,3.05035777 C1.61730499,3.11082111 1.54002639,3.14534604 1.45881232,3.14534604 Z M0.744521994,1.63519355 L1.45863343,2.43141349 L2.17292375,1.63519355 L1.45863343,0.838973607 L0.744521994,1.63519355 Z" id="XMLID_640_" fill="#434356" fill-rule="nonzero"></path>
                                                <path d="M5.73847214,3.14534604 C5.65725806,3.14534604 5.57997947,3.11082111 5.52559824,3.05035777 L4.42741935,1.82606452 C4.33010557,1.71748094 4.33010557,1.55290616 4.42741935,1.44432258 L5.52559824,0.21985044 C5.57980059,0.159387097 5.65725806,0.12486217 5.73847214,0.12486217 C5.81968622,0.12486217 5.89696481,0.159387097 5.95134604,0.21985044 L7.04970381,1.44432258 C7.1470176,1.55290616 7.1470176,1.71748094 7.04970381,1.82606452 L5.95134604,3.05035777 C5.89696481,3.11082111 5.81968622,3.14534604 5.73847214,3.14534604 Z M5.02418182,1.63519355 L5.73829326,2.43141349 L6.45258358,1.63519355 L5.73829326,0.838973607 L5.02418182,1.63519355 Z" id="XMLID_634_" fill="#434356" fill-rule="nonzero"></path>
                                                <path d="M10.0179531,3.14534604 C9.936739,3.14534604 9.85946041,3.11082111 9.80507918,3.05035777 L8.70690029,1.82606452 C8.60958651,1.71748094 8.60958651,1.55290616 8.70690029,1.44432258 L9.80507918,0.21985044 C9.85928152,0.159387097 9.936739,0.12486217 10.0179531,0.12486217 C10.0991672,0.12486217 10.1766246,0.159387097 10.230827,0.21985044 L11.3291848,1.44432258 C11.4264985,1.55290616 11.4264985,1.71748094 11.3291848,1.82606452 L10.230827,3.05035777 C10.1766246,3.11082111 10.0991672,3.14534604 10.0179531,3.14534604 Z M9.30384164,1.63519355 L10.0179531,2.43141349 L10.7322434,1.63519355 L10.0179531,0.838973607 L9.30384164,1.63519355 Z" id="XMLID_630_" fill="#434356" fill-rule="nonzero"></path>
                                            </g>
                                            <rect id="XMLID_626_" fill="#434356" fill-rule="nonzero" x="0.0742375367" y="34.3632141" width="40.6655337" height="1"></rect>
                                        </g>
                                    </g>
                                    <g id="XMLID_717_" mask="url(#mask-4)">
                                        <g transform="translate(33.093842, 11.269795)">
                                            <path d="M35.2368915,34.3632141 C35.4579941,34.0938123 35.591085,33.7496364 35.591085,33.3746921 C35.591085,32.6221202 35.0556804,31.9924428 34.3456833,31.8462933 C34.2471173,30.9985543 33.6623402,30.2985748 32.8781056,30.0306041 C33.3997361,29.6302581 33.7381877,29.0025484 33.7381877,28.2957713 C33.7381877,28.1378152 33.6101056,28.009912 33.4523284,28.009912 L32.3278534,28.009912 C30.2270205,27.0095836 29.4052199,25.5019355 29.4052199,22.6524663 L29.4052199,16.4517537 C29.4052199,13.8085396 27.2548358,11.6579765 24.6114428,11.6579765 L24.46261,11.6579765 L24.46261,9.34659531 C24.46261,9.1886393 24.3345279,9.06073607 24.1767507,9.06073607 L22.3689326,9.06073607 L21.8984633,0.329865103 C21.8902346,0.178170088 21.7648358,0.0593900293 21.6129619,0.0593900293 L19.257217,0.0593900293 C19.1053431,0.0593900293 18.9799443,0.178170088 18.9717155,0.329865103 L18.5012463,9.06073607 L16.693607,9.06073607 C16.535651,9.06073607 16.4077478,9.1886393 16.4077478,9.34659531 L16.4077478,11.6579765 L16.258915,11.6579765 C13.6157009,11.6579765 11.4651378,13.8085396 11.4651378,16.4517537 L11.4651378,22.6524663 C11.4651378,25.5021144 10.6433372,27.0095836 8.5425044,28.009912 L7.41802933,28.009912 C7.2602522,28.009912 7.13217009,28.1378152 7.13217009,28.2957713 C7.13217009,29.0025484 7.47044282,29.630437 7.99207331,30.0306041 C7.20783871,30.2983959 6.62306158,30.9983754 6.5244956,31.8462933 C5.81449853,31.9924428 5.27909384,32.6221202 5.27909384,33.3746921 C5.27909384,33.7496364 5.41218475,34.0939912 5.63328739,34.3632141 L0.102322581,34.3632141 L0.102322581,34.9349326 L6.8395132,34.9349326 L34.0306657,34.9349326 L40.7680352,34.9349326 L40.7680352,34.3632141 L35.2368915,34.3632141 Z" id="XMLID_783_" fill="#C6C6C5" fill-rule="nonzero"></path>
                                            <path d="M22.0980997,9.63227566 L18.7722581,9.63227566 C18.6937273,9.63227566 18.6187742,9.60007625 18.5647507,9.54301173 C18.5109062,9.4861261 18.4826422,9.40938416 18.4867566,9.33103226 L18.9717155,0.329686217 C18.9799443,0.177991202 19.1053431,0.0592111437 19.257217,0.0592111437 L21.6129619,0.0592111437 C21.7648358,0.0592111437 21.8902346,0.177991202 21.8984633,0.329686217 L22.3836012,9.33103226 C22.3878944,9.40938416 22.3596305,9.4861261 22.305607,9.54301173 C22.2515836,9.60007625 22.1766305,9.63227566 22.0980997,9.63227566 Z M19.0738592,9.06055718 L21.7963196,9.06055718 L21.342129,0.630929619 L19.5282287,0.630929619 L19.0738592,9.06055718 Z" id="XMLID_780_" fill="#434356" fill-rule="nonzero"></path>
                                            <path d="M24.1767507,12.229695 L16.693607,12.229695 C16.5358299,12.229695 16.4077478,12.1017918 16.4077478,11.9438358 L16.4077478,9.34659531 C16.4077478,9.1886393 16.5358299,9.06073607 16.693607,9.06073607 L24.1767507,9.06073607 C24.3345279,9.06073607 24.46261,9.1886393 24.46261,9.34659531 L24.46261,11.9438358 C24.46261,12.1016129 24.3345279,12.229695 24.1767507,12.229695 Z M16.9794663,11.6577977 L23.8908915,11.6577977 L23.8908915,9.63227566 L16.9794663,9.63227566 L16.9794663,11.6577977 Z" id="XMLID_777_" fill="#434356" fill-rule="nonzero"></path>
                                            <path d="M32.2604135,28.5816305 L8.60994428,28.5816305 C8.47595894,28.5816305 8.35986217,28.48861 8.3308827,28.3576657 C8.30190323,28.2267214 8.36755425,28.0934516 8.4890176,28.036566 C10.6308152,27.0362375 11.4653167,25.5266217 11.4653167,22.6522874 L11.4653167,16.4515748 C11.4653167,13.8083607 13.6157009,11.6577977 16.2590938,11.6577977 L24.6114428,11.6577977 C27.2546569,11.6577977 29.4052199,13.8083607 29.4052199,16.4515748 L29.4052199,22.6522874 C29.4052199,25.5268006 30.2395425,27.0364164 32.3815191,28.036566 C32.5029824,28.0932727 32.5686334,28.2267214 32.539654,28.3576657 C32.5104956,28.4884311 32.3943988,28.5816305 32.2604135,28.5816305 Z M9.70633431,28.0097331 L31.1640235,28.0097331 C29.52239,26.9065455 28.8333226,25.2776129 28.8333226,22.6522874 L28.8333226,16.4515748 C28.8333226,14.1235572 26.9392815,12.2295161 24.6112639,12.2295161 L16.258915,12.2295161 C13.9308974,12.2295161 12.0368563,14.1235572 12.0368563,16.4515748 L12.0368563,22.6522874 C12.0370352,25.2777918 11.3479677,26.9065455 9.70633431,28.0097331 Z" id="XMLID_774_" fill="#434356" fill-rule="nonzero"></path>
                                            <path d="M34.0308446,34.9349326 L6.8395132,34.9349326 C5.97907331,34.9349326 5.27909384,34.2349531 5.27909384,33.3746921 C5.27909384,32.5142522 5.97907331,31.8142727 6.8395132,31.8142727 L34.0306657,31.8142727 C34.8911056,31.8142727 35.591085,32.5142522 35.591085,33.3746921 C35.591085,34.2349531 34.8912845,34.9349326 34.0308446,34.9349326 Z M6.8395132,32.3859912 C6.29444868,32.3859912 5.8509912,32.8294487 5.8509912,33.3745132 C5.8509912,33.9195777 6.29444868,34.3630352 6.8395132,34.3630352 L34.0306657,34.3630352 C34.5757302,34.3630352 35.0191877,33.9195777 35.0191877,33.3745132 C35.0191877,32.8294487 34.5757302,32.3859912 34.0306657,32.3859912 L6.8395132,32.3859912 Z" id="XMLID_771_" fill="#434356" fill-rule="nonzero"></path>
                                            <path d="M31.5500587,30.4837214 L9.32029912,30.4837214 C8.11371554,30.4837214 7.13217009,29.502176 7.13217009,28.2955924 C7.13217009,28.1376364 7.2602522,28.0097331 7.41802933,28.0097331 L33.4521496,28.0097331 C33.6099267,28.0097331 33.7380088,28.1376364 33.7380088,28.2955924 C33.7381877,29.502176 32.7566422,30.4837214 31.5500587,30.4837214 Z M7.72929032,28.5816305 C7.86470674,29.3370645 8.52658358,29.9121818 9.32029912,29.9121818 L31.5500587,29.9121818 C32.3437742,29.9121818 33.005651,29.3370645 33.1412463,28.5816305 L7.72929032,28.5816305 Z" id="XMLID_768_" fill="#434356" fill-rule="nonzero"></path>
                                            <path d="M34.0759238,32.3859912 L6.79443402,32.3859912 C6.63665689,32.3859912 6.50857478,32.258088 6.50857478,32.100132 C6.50857478,30.8935484 7.49012023,29.9120029 8.69670381,29.9120029 L32.1734751,29.9120029 C33.3800587,29.9120029 34.3616041,30.8935484 34.3616041,32.100132 C34.361783,32.258088 34.2337009,32.3859912 34.0759238,32.3859912 Z M7.10569501,31.8142727 L33.7646628,31.8142727 C33.6292463,31.0588387 32.9671906,30.4839003 32.1734751,30.4839003 L8.69670381,30.4839003 C7.90298827,30.4837214 7.24111144,31.0588387 7.10569501,31.8142727 Z" id="XMLID_765_" fill="#434356" fill-rule="nonzero"></path>
                                            <g id="XMLID_752_" stroke-width="1" fill="none" fill-rule="evenodd" transform="translate(12.521994, 23.970674)">
                                                <path d="M1.49369501,3.10706452 C1.41248094,3.10706452 1.33520235,3.07253959 1.28082111,3.01207625 L0.182463343,1.78760411 C0.0851495601,1.67902053 0.0851495601,1.51444575 0.182463343,1.40586217 L1.28082111,0.181390029 C1.33502346,0.120926686 1.41248094,0.0864017595 1.49369501,0.0864017595 L1.49369501,0.0864017595 C1.57490909,0.0864017595 1.65218768,0.120926686 1.70656891,0.181390029 L2.8047478,1.40586217 C2.90206158,1.51444575 2.90206158,1.67902053 2.8047478,1.78760411 L1.70656891,3.01207625 C1.65218768,3.07253959 1.57490909,3.10706452 1.49369501,3.10706452 Z M0.779404692,1.59673314 L1.49369501,2.39295308 L2.20780645,1.59673314 L1.49369501,0.800513196 L0.779404692,1.59673314 Z" id="XMLID_762_" fill="#434356" fill-rule="nonzero"></path>
                                                <path d="M5.77335484,3.10706452 C5.69214076,3.10706452 5.61486217,3.07253959 5.56048094,3.01207625 L4.46212317,1.78760411 C4.36480938,1.67902053 4.36480938,1.51444575 4.46212317,1.40586217 L5.56048094,0.181390029 C5.61468328,0.120926686 5.69214076,0.0864017595 5.77335484,0.0864017595 C5.85456891,0.0864017595 5.93184751,0.120926686 5.98622874,0.181390029 L7.08440762,1.40586217 C7.18172141,1.51444575 7.18172141,1.67902053 7.08440762,1.78760411 L5.98622874,3.01207625 C5.93184751,3.07253959 5.85456891,3.10706452 5.77335484,3.10706452 Z M5.05906452,1.59673314 L5.77335484,2.39295308 L6.48746628,1.59673314 L5.77335484,0.800513196 L5.05906452,1.59673314 Z" id="XMLID_759_" fill="#434356" fill-rule="nonzero"></path>
                                                <path d="M10.0530147,3.10706452 C9.97180059,3.10706452 9.89452199,3.07253959 9.84014076,3.01207625 L8.74178299,1.78760411 C8.64446921,1.67902053 8.64446921,1.51444575 8.74178299,1.40586217 L9.84014076,0.181390029 C9.89434311,0.120926686 9.97180059,0.0864017595 10.0530147,0.0864017595 C10.1342287,0.0864017595 10.2115073,0.120926686 10.2658886,0.181390029 L11.3640674,1.40586217 C11.4613812,1.51444575 11.4613812,1.67902053 11.3640674,1.78760411 L10.2658886,3.01207625 C10.2115073,3.07253959 10.1342287,3.10706452 10.0530147,3.10706452 Z M9.33872434,1.59673314 L10.0530147,2.39295308 L10.767305,1.59673314 L10.0530147,0.800513196 L9.33872434,1.59673314 Z" id="XMLID_756_" fill="#434356" fill-rule="nonzero"></path>
                                                <path d="M14.3326745,3.10706452 L14.3326745,3.10706452 C14.2514604,3.10706452 14.1741818,3.07253959 14.1198006,3.01207625 L13.0216217,1.78760411 C12.9243079,1.67902053 12.9243079,1.51444575 13.0216217,1.40586217 L14.1198006,0.181390029 C14.1740029,0.120926686 14.2514604,0.0864017595 14.3326745,0.0864017595 C14.4138886,0.0864017595 14.4911672,0.120926686 14.5455484,0.181390029 L15.6437273,1.40586217 C15.7410411,1.51444575 15.7410411,1.67902053 15.6437273,1.78760411 L14.5455484,3.01207625 C14.4911672,3.07253959 14.4138886,3.10706452 14.3326745,3.10706452 Z M13.6183842,1.59673314 L14.3326745,2.39295308 L15.0469648,1.59673314 L14.3326745,0.800513196 L13.6183842,1.59673314 Z" id="XMLID_753_" fill="#434356" fill-rule="nonzero"></path>
                                            </g>
                                            <g id="XMLID_739_" stroke-width="1" fill="none" fill-rule="evenodd" transform="translate(12.521994, 17.351906)">
                                                <path d="M1.49369501,3.11082111 C1.41248094,3.11082111 1.33520235,3.07629619 1.28082111,3.01583284 L0.182463343,1.7913607 C0.0851495601,1.68277713 0.0851495601,1.51820235 0.182463343,1.40961877 L1.28082111,0.185146628 C1.33502346,0.124683284 1.41248094,0.0901583578 1.49369501,0.0901583578 L1.49369501,0.0901583578 C1.57490909,0.0901583578 1.65218768,0.124683284 1.70656891,0.185146628 L2.8047478,1.40961877 C2.90206158,1.51820235 2.90206158,1.68277713 2.8047478,1.7913607 L1.70656891,3.01583284 C1.65218768,3.0761173 1.57490909,3.11082111 1.49369501,3.11082111 Z M0.779404692,1.60048974 L1.49369501,2.39670968 L2.20780645,1.60048974 L1.49369501,0.804269795 L0.779404692,1.60048974 Z" id="XMLID_749_" fill="#434356" fill-rule="nonzero"></path>
                                                <path d="M5.77335484,3.11082111 C5.69214076,3.11082111 5.61486217,3.07629619 5.56048094,3.01583284 L4.46212317,1.7913607 C4.36480938,1.68277713 4.36480938,1.51820235 4.46212317,1.40961877 L5.56048094,0.185146628 C5.61468328,0.124683284 5.69214076,0.0901583578 5.77335484,0.0901583578 C5.85456891,0.0901583578 5.93184751,0.124683284 5.98622874,0.185146628 L7.08440762,1.40961877 C7.18172141,1.51820235 7.18172141,1.68277713 7.08440762,1.7913607 L5.98622874,3.01583284 C5.93184751,3.0761173 5.85456891,3.11082111 5.77335484,3.11082111 Z M5.05906452,1.60048974 L5.77335484,2.39670968 L6.48746628,1.60048974 L5.77335484,0.804269795 L5.05906452,1.60048974 Z" id="XMLID_746_" fill="#434356" fill-rule="nonzero"></path>
                                                <path d="M10.0530147,3.11082111 C9.97180059,3.11082111 9.89452199,3.07629619 9.84014076,3.01583284 L8.74178299,1.7913607 C8.64446921,1.68277713 8.64446921,1.51820235 8.74178299,1.40961877 L9.84014076,0.185146628 C9.89434311,0.124683284 9.97180059,0.0901583578 10.0530147,0.0901583578 C10.1342287,0.0901583578 10.2115073,0.124683284 10.2658886,0.185146628 L11.3640674,1.40961877 C11.4613812,1.51820235 11.4613812,1.68277713 11.3640674,1.7913607 L10.2658886,3.01583284 C10.2115073,3.0761173 10.1342287,3.11082111 10.0530147,3.11082111 Z M9.33872434,1.60048974 L10.0530147,2.39670968 L10.767305,1.60048974 L10.0530147,0.804269795 L9.33872434,1.60048974 Z" id="XMLID_743_" fill="#434356" fill-rule="nonzero"></path>
                                                <path d="M14.3326745,3.11082111 L14.3326745,3.11082111 C14.2514604,3.11082111 14.1741818,3.07629619 14.1198006,3.01583284 L13.0216217,1.7913607 C12.9243079,1.68277713 12.9243079,1.51820235 13.0216217,1.40961877 L14.1198006,0.185146628 C14.1740029,0.124683284 14.2514604,0.0901583578 14.3326745,0.0901583578 C14.4138886,0.0901583578 14.4911672,0.124683284 14.5455484,0.185146628 L15.6437273,1.40961877 C15.7410411,1.51820235 15.7410411,1.68277713 15.6437273,1.7913607 L14.5455484,3.01583284 C14.4911672,3.0761173 14.4138886,3.11082111 14.3326745,3.11082111 Z M13.6183842,1.60048974 L14.3326745,2.39670968 L15.0469648,1.60048974 L14.3326745,0.804269795 L13.6183842,1.60048974 Z" id="XMLID_740_" fill="#434356" fill-rule="nonzero"></path>
                                            </g>
                                            <g id="XMLID_729_" stroke-width="1" fill="none" fill-rule="evenodd" transform="translate(14.668622, 20.571848)">
                                                <path d="M1.48689736,3.02334604 C1.40568328,3.02334604 1.32840469,2.98882111 1.27402346,2.92835777 L0.175844575,1.70388563 C0.0785307918,1.59530205 0.0785307918,1.43072727 0.175844575,1.3221437 L1.27402346,0.0978504399 C1.32822581,0.0373870968 1.40568328,0.00286217009 1.48689736,0.00286217009 C1.56811144,0.00286217009 1.64539003,0.0373870968 1.69977126,0.0978504399 L2.79812903,1.3221437 C2.89544282,1.43072727 2.89544282,1.59530205 2.79812903,1.70388563 L1.69977126,2.92835777 C1.64539003,2.98882111 1.56811144,3.02334604 1.48689736,3.02334604 Z M0.772785924,1.51319355 L1.48689736,2.30941349 L2.20118768,1.51319355 L1.48689736,0.716973607 L0.772785924,1.51319355 Z" id="XMLID_736_" fill="#434356" fill-rule="nonzero"></path>
                                                <path d="M5.76655718,3.02334604 C5.68534311,3.02334604 5.60806452,2.98882111 5.55368328,2.92835777 L4.4555044,1.70388563 C4.35819062,1.59530205 4.35819062,1.43072727 4.4555044,1.3221437 L5.55368328,0.0978504399 C5.60788563,0.0373870968 5.68534311,0.00286217009 5.76655718,0.00286217009 C5.84777126,0.00286217009 5.92504985,0.0373870968 5.97943109,0.0978504399 L7.07778886,1.3221437 C7.17510264,1.43072727 7.17510264,1.59530205 7.07778886,1.70388563 L5.97943109,2.92835777 C5.92504985,2.98882111 5.84777126,3.02334604 5.76655718,3.02334604 Z M5.05226686,1.51319355 L5.7663783,2.30941349 L6.48066862,1.51319355 L5.7663783,0.716973607 L5.05226686,1.51319355 Z" id="XMLID_733_" fill="#434356" fill-rule="nonzero"></path>
                                                <path d="M10.046217,3.02334604 C9.96500293,3.02334604 9.88772434,2.98882111 9.83334311,2.92835777 L8.73516422,1.70388563 C8.63785044,1.59530205 8.63785044,1.43072727 8.73516422,1.3221437 L9.83334311,0.0978504399 C9.88754545,0.0373870968 9.96500293,0.00286217009 10.046217,0.00286217009 C10.1274311,0.00286217009 10.2048886,0.0373870968 10.2590909,0.0978504399 L11.3574487,1.3221437 C11.4547625,1.43072727 11.4547625,1.59530205 11.3574487,1.70388563 L10.2590909,2.92835777 C10.2047097,2.98882111 10.1274311,3.02334604 10.046217,3.02334604 Z M9.33192669,1.51319355 L10.0460381,2.30941349 L10.7603284,1.51319355 L10.0460381,0.716973607 L9.33192669,1.51319355 Z" id="XMLID_730_" fill="#434356" fill-rule="nonzero"></path>
                                            </g>
                                            <g id="XMLID_719_" stroke-width="1" fill="none" fill-rule="evenodd" transform="translate(14.668622, 13.953079)">
                                                <path d="M1.48689736,3.14534604 C1.40568328,3.14534604 1.32840469,3.11082111 1.27402346,3.05035777 L0.175844575,1.82606452 C0.0785307918,1.71748094 0.0785307918,1.55290616 0.175844575,1.44432258 L1.27402346,0.21985044 C1.32822581,0.159387097 1.40568328,0.12486217 1.48689736,0.12486217 C1.56811144,0.12486217 1.64539003,0.159387097 1.69977126,0.21985044 L2.79812903,1.44432258 C2.89544282,1.55290616 2.89544282,1.71748094 2.79812903,1.82606452 L1.69977126,3.05035777 C1.64539003,3.11082111 1.56811144,3.14534604 1.48689736,3.14534604 Z M0.772785924,1.63519355 L1.48689736,2.43141349 L2.20118768,1.63519355 L1.48689736,0.838973607 L0.772785924,1.63519355 Z" id="XMLID_726_" fill="#434356" fill-rule="nonzero"></path>
                                                <path d="M5.76655718,3.14534604 C5.68534311,3.14534604 5.60806452,3.11082111 5.55368328,3.05035777 L4.4555044,1.82606452 C4.35819062,1.71748094 4.35819062,1.55290616 4.4555044,1.44432258 L5.55368328,0.21985044 C5.60788563,0.159387097 5.68534311,0.12486217 5.76655718,0.12486217 C5.84777126,0.12486217 5.92504985,0.159387097 5.97943109,0.21985044 L7.07778886,1.44432258 C7.17510264,1.55290616 7.17510264,1.71748094 7.07778886,1.82606452 L5.97943109,3.05035777 C5.92504985,3.11082111 5.84777126,3.14534604 5.76655718,3.14534604 Z M5.05226686,1.63519355 L5.7663783,2.43141349 L6.48066862,1.63519355 L5.7663783,0.838973607 L5.05226686,1.63519355 Z" id="XMLID_723_" fill="#434356" fill-rule="nonzero"></path>
                                                <path d="M10.046217,3.14534604 C9.96500293,3.14534604 9.88772434,3.11082111 9.83334311,3.05035777 L8.73516422,1.82606452 C8.63785044,1.71748094 8.63785044,1.55290616 8.73516422,1.44432258 L9.83334311,0.21985044 C9.88754545,0.159387097 9.96500293,0.12486217 10.046217,0.12486217 C10.1274311,0.12486217 10.2048886,0.159387097 10.2590909,0.21985044 L11.3574487,1.44432258 C11.4547625,1.55290616 11.4547625,1.71748094 11.3574487,1.82606452 L10.2590909,3.05035777 C10.2047097,3.11082111 10.1274311,3.14534604 10.046217,3.14534604 Z M9.33192669,1.63519355 L10.0460381,2.43141349 L10.7603284,1.63519355 L10.0460381,0.838973607 L9.33192669,1.63519355 Z" id="XMLID_720_" fill="#434356" fill-rule="nonzero"></path>
                                            </g>
                                            <rect id="XMLID_718_" fill="#434356" fill-rule="nonzero" x="0.102322581" y="34.3632141" width="40.6655337" height="1"></rect>
                                        </g>
                                    </g>
                                    <g id="XMLID_624_" mask="url(#mask-4)">
                                        <g transform="translate(7.155425, 3.577713)">
                                            <path d="M50.5926129,49.392827 C50.909956,49.0062551 51.100827,48.512173 51.100827,47.9742639 C51.100827,46.8943314 50.3325132,45.9906012 49.3135806,45.7809472 C49.1720821,44.564346 48.3329296,43.5597243 47.2075601,43.175478 C47.9561965,42.6010762 48.4416921,41.7002082 48.4416921,40.6857478 C48.4416921,40.4590997 48.2579765,40.275563 48.0315073,40.275563 L46.4177801,40.275563 C43.4028416,38.8400059 42.2236276,36.676563 42.2236276,32.5872375 L42.2236276,23.6889296 C42.2236276,19.8956598 39.1376716,16.8097038 35.3444018,16.8097038 L35.1309912,16.8097038 L35.1309912,13.4926276 C35.1309912,13.2659795 34.9472757,13.0824428 34.7208065,13.0824428 L32.1264282,13.0824428 L31.4513138,0.55311437 C31.4395073,0.335410557 31.2595484,0.164932551 31.0416657,0.164932551 L27.6609062,0.164932551 C27.4430235,0.164932551 27.2630645,0.335410557 27.2512581,0.55311437 L26.5761437,13.0824428 L23.9819443,13.0824428 C23.7552962,13.0824428 23.5717595,13.2661584 23.5717595,13.4926276 L23.5717595,16.8097038 L23.3581701,16.8097038 C19.5649003,16.8097038 16.4789443,19.8958387 16.4789443,23.6889296 L16.4789443,32.5872375 C16.4789443,36.676563 15.2995513,38.8400059 12.2846129,40.275563 L10.6708856,40.275563 C10.4444164,40.275563 10.2607009,40.4592786 10.2607009,40.6857478 C10.2607009,41.7000293 10.7461965,42.6010762 11.4948328,43.175478 C10.3692845,43.5597243 9.53013196,44.564346 9.38881232,45.7809472 C8.37005865,45.9906012 7.60156598,46.8943314 7.60156598,47.9742639 C7.60156598,48.5123519 7.79243695,49.006434 8.10995894,49.392827 L0.172624633,49.392827 L0.172624633,50.2133754 L9.8408563,50.2133754 L48.8617155,50.2133754 L58.5299472,50.2133754 L58.5299472,49.392827 L50.5926129,49.392827 Z" id="XMLID_178_" fill="#C6C6C5" fill-rule="nonzero"></path>
                                            <path d="M31.7377097,13.9028123 L26.9648622,13.9028123 C26.8521642,13.9028123 26.7444751,13.8564809 26.6670176,13.7747302 C26.5895601,13.6929795 26.549132,13.5829648 26.5552141,13.4704457 L27.2512581,0.55311437 C27.2630645,0.335410557 27.4430235,0.164932551 27.6609062,0.164932551 L31.0414868,0.164932551 C31.2593695,0.164932551 31.4393284,0.335410557 31.4511349,0.55311437 L32.1471789,13.4704457 C32.153261,13.5829648 32.112654,13.6929795 32.0353754,13.7747302 C31.9580968,13.8564809 31.8504076,13.9028123 31.7377097,13.9028123 Z M27.3977654,13.0822639 L31.3046276,13.0822639 L30.6527683,0.985302053 L28.0498035,0.985302053 L27.3977654,13.0822639 Z" id="XMLID_689_" fill="#434356" fill-rule="nonzero"></path>
                                            <path d="M34.7206276,17.6300733 L23.9819443,17.6300733 C23.7554751,17.6300733 23.5717595,17.4463578 23.5717595,17.2198886 L23.5717595,13.4926276 C23.5717595,13.2659795 23.7554751,13.0824428 23.9819443,13.0824428 L34.7206276,13.0824428 C34.9470968,13.0824428 35.1308123,13.2661584 35.1308123,13.4926276 L35.1308123,17.2198886 C35.1309912,17.4465367 34.9470968,17.6300733 34.7206276,17.6300733 Z M24.392129,16.8095249 L34.3102639,16.8095249 L34.3102639,13.9028123 L24.392129,13.9028123 L24.392129,16.8095249 Z" id="XMLID_686_" fill="#434356" fill-rule="nonzero"></path>
                                            <path d="M46.3210029,41.0959326 L12.3815689,41.0959326 C12.1892669,41.0959326 12.0227243,40.962305 11.981044,40.774654 C11.9393636,40.586824 12.0336364,40.3954164 12.207871,40.3140235 C15.2814839,38.8786452 16.4789443,36.7121613 16.4789443,32.5872375 L16.4789443,23.6889296 C16.4789443,19.8956598 19.5649003,16.8097038 23.3581701,16.8097038 L35.3444018,16.8097038 C39.1376716,16.8097038 42.2236276,19.8958387 42.2236276,23.6889296 L42.2236276,32.5872375 C42.2236276,36.7121613 43.421088,38.8786452 46.4947009,40.3140235 C46.6689355,40.3954164 46.7632082,40.586824 46.7215279,40.774654 C46.6798475,40.9624839 46.513305,41.0959326 46.3210029,41.0959326 Z M13.9546891,40.275563 L44.7477038,40.275563 C42.3919589,38.6924252 41.4030792,36.3547478 41.4030792,32.5872375 L41.4030792,23.6889296 C41.4030792,20.3480616 38.6850909,17.6300733 35.3442229,17.6300733 L23.3581701,17.6300733 C20.0173021,17.6300733 17.2993138,20.3480616 17.2993138,23.6889296 L17.2993138,32.5872375 C17.2994927,36.3547478 16.3106129,38.6922463 13.9546891,40.275563 Z" id="XMLID_683_" fill="#434356" fill-rule="nonzero"></path>
                                            <path d="M48.8617155,50.2133754 L9.8408563,50.2133754 C8.6060088,50.2133754 7.60174487,49.2089326 7.60174487,47.9742639 C7.60174487,46.7395953 8.60618768,45.7351525 9.8408563,45.7351525 L48.8617155,45.7351525 C50.096563,45.7351525 51.100827,46.7395953 51.100827,47.9742639 C51.100827,49.2089326 50.096563,50.2133754 48.8617155,50.2133754 Z M9.8408563,46.555522 C9.05858944,46.555522 8.42211437,47.1919971 8.42211437,47.9742639 C8.42211437,48.7565308 9.05858944,49.392827 9.8408563,49.392827 L48.8617155,49.392827 C49.6439824,49.392827 50.2804575,48.7565308 50.2804575,47.9742639 C50.2804575,47.1919971 49.6439824,46.555522 48.8617155,46.555522 L9.8408563,46.555522 Z" id="XMLID_680_" fill="#434356" fill-rule="nonzero"></path>
                                            <path d="M45.3017126,43.8259062 L13.4008592,43.8259062 C11.6694252,43.8259062 10.2608798,42.4173607 10.2608798,40.6859267 C10.2608798,40.4592786 10.4445953,40.2757419 10.6710645,40.2757419 L48.0315073,40.2757419 C48.2579765,40.2757419 48.4416921,40.4594575 48.4416921,40.6859267 C48.441871,42.4171818 47.0331466,43.8259062 45.3017126,43.8259062 Z M11.117563,41.0959326 C11.3118328,42.1799795 12.2617155,43.0051789 13.4008592,43.0051789 L45.3017126,43.0051789 C46.4406774,43.0051789 47.390739,42.1798006 47.5850088,41.0959326 L11.117563,41.0959326 Z" id="XMLID_677_" fill="#434356" fill-rule="nonzero"></path>
                                            <path d="M48.9264721,46.555522 L9.77609971,46.555522 C9.5496305,46.555522 9.36591496,46.3718065 9.36591496,46.1453372 C9.36591496,44.4139032 10.7744604,43.0053578 12.5058944,43.0053578 L46.1964985,43.0053578 C47.9281114,43.0053578 49.3366569,44.4139032 49.3366569,46.1453372 C49.3366569,46.3719853 49.1529413,46.555522 48.9264721,46.555522 Z M10.2227771,45.7351525 L48.4799736,45.7351525 C48.2857038,44.6511056 47.3356422,43.8259062 46.1966774,43.8259062 L12.5058944,43.8259062 C11.3669296,43.8259062 10.4170469,44.6511056 10.2227771,45.7351525 Z" id="XMLID_674_" fill="#434356" fill-rule="nonzero"></path>
                                            <g id="XMLID_661_" stroke-width="1" fill="none" fill-rule="evenodd" transform="translate(18.067449, 34.524927)">
                                                <path d="M2.0714956,4.41292962 C1.95504106,4.41292962 1.84395308,4.3633783 1.76613783,4.27661877 L0.18997654,2.51960411 C0.0502668622,2.36379472 0.0502668622,2.12766569 0.18997654,1.97167742 L1.76613783,0.214662757 C1.84395308,0.127903226 1.95504106,0.0783519062 2.0714956,0.0783519062 L2.0714956,0.0783519062 C2.18795015,0.0783519062 2.29903812,0.127903226 2.37685337,0.214662757 L3.95283578,1.97167742 C4.09254545,2.1274868 4.09254545,2.36361584 3.95283578,2.51960411 L2.37685337,4.27661877 C2.29903812,4.3633783 2.18812903,4.41292962 2.0714956,4.41292962 Z M1.04665982,2.24555132 L2.07167449,3.38827273 L3.09651026,2.24555132 L2.07167449,1.10282991 L1.04665982,2.24555132 Z" id="XMLID_671_" fill="#434356" fill-rule="nonzero"></path>
                                                <path d="M8.21299707,4.41292962 C8.09654252,4.41292962 7.98545455,4.3633783 7.9076393,4.27661877 L6.33147801,2.51960411 C6.19176833,2.36379472 6.19176833,2.12766569 6.33147801,1.97167742 L7.9076393,0.214662757 C7.98545455,0.127903226 8.09654252,0.0783519062 8.21299707,0.0783519062 C8.32945161,0.0783519062 8.44053959,0.127903226 8.51835484,0.214662757 L10.0943372,1.97167742 C10.2340469,2.1274868 10.2340469,2.36361584 10.0943372,2.51960411 L8.51835484,4.27661877 C8.44071848,4.3633783 8.3296305,4.41292962 8.21299707,4.41292962 Z M7.18816129,2.24555132 L8.21317595,3.38827273 L9.23801173,2.24555132 L8.21317595,1.10282991 L7.18816129,2.24555132 Z" id="XMLID_668_" fill="#434356" fill-rule="nonzero"></path>
                                                <path d="M14.3546774,4.41292962 C14.2382229,4.41292962 14.1271349,4.3633783 14.0493196,4.27661877 L12.4731584,2.51960411 C12.3334487,2.36379472 12.3334487,2.12766569 12.4731584,1.97167742 L14.0493196,0.214662757 C14.1271349,0.127903226 14.2382229,0.0783519062 14.3546774,0.0783519062 C14.471132,0.0783519062 14.5822199,0.127903226 14.6600352,0.214662757 L16.2360176,1.97167742 C16.3757273,2.1274868 16.3757273,2.36361584 16.2360176,2.51960411 L14.6600352,4.27661877 C14.5822199,4.3633783 14.471132,4.41292962 14.3546774,4.41292962 Z M13.3296628,2.24555132 L14.3546774,3.38827273 L15.3796921,2.24555132 L14.3546774,1.10282991 L13.3296628,2.24555132 Z" id="XMLID_665_" fill="#434356" fill-rule="nonzero"></path>
                                                <path d="M20.4961789,4.41292962 L20.4961789,4.41292962 C20.3797243,4.41292962 20.2686364,4.3633783 20.1908211,4.27661877 L18.6148387,2.51960411 C18.475129,2.36379472 18.475129,2.12766569 18.6148387,1.97167742 L20.1908211,0.214662757 C20.2686364,0.127903226 20.3797243,0.0783519062 20.4961789,0.0783519062 C20.6126334,0.0783519062 20.7237214,0.127903226 20.8015367,0.214662757 L22.3775191,1.97167742 C22.5172287,2.1274868 22.5172287,2.36361584 22.3775191,2.51960411 L20.8015367,4.27661877 C20.7237214,4.3633783 20.6126334,4.41292962 20.4961789,4.41292962 Z M19.4711642,2.24555132 L20.4961789,3.38827273 L21.5211935,2.24555132 L20.4961789,1.10282991 L19.4711642,2.24555132 Z" id="XMLID_662_" fill="#434356" fill-rule="nonzero"></path>
                                            </g>
                                            <g id="XMLID_648_" stroke-width="1" fill="none" fill-rule="evenodd" transform="translate(18.067449, 25.043988)">
                                                <path d="M2.0714956,4.40094428 C1.95504106,4.40094428 1.84395308,4.35139296 1.76613783,4.26463343 L0.18997654,2.50761877 C0.0502668622,2.35180938 0.0502668622,2.11568035 0.18997654,1.95969208 L1.76613783,0.202677419 C1.84395308,0.115917889 1.95504106,0.0663665689 2.0714956,0.0663665689 L2.0714956,0.0663665689 C2.18795015,0.0663665689 2.29903812,0.115917889 2.37685337,0.202677419 L3.95283578,1.95969208 C4.09254545,2.11550147 4.09254545,2.3516305 3.95283578,2.50761877 L2.37685337,4.26463343 C2.29903812,4.35139296 2.18812903,4.40094428 2.0714956,4.40094428 Z M1.04665982,2.23356598 L2.07167449,3.37628739 L3.09651026,2.23356598 L2.07167449,1.09084457 L1.04665982,2.23356598 Z" id="XMLID_658_" fill="#434356" fill-rule="nonzero"></path>
                                                <path d="M8.21299707,4.40094428 C8.09654252,4.40094428 7.98545455,4.35139296 7.9076393,4.26463343 L6.33147801,2.50761877 C6.19176833,2.35180938 6.19176833,2.11568035 6.33147801,1.95969208 L7.9076393,0.202677419 C7.98545455,0.115917889 8.09654252,0.0663665689 8.21299707,0.0663665689 C8.32945161,0.0663665689 8.44053959,0.115917889 8.51835484,0.202677419 L10.0943372,1.95969208 C10.2340469,2.11550147 10.2340469,2.3516305 10.0943372,2.50761877 L8.51835484,4.26463343 C8.44071848,4.35139296 8.3296305,4.40094428 8.21299707,4.40094428 Z M7.18816129,2.23356598 L8.21317595,3.37628739 L9.23801173,2.23356598 L8.21317595,1.09084457 L7.18816129,2.23356598 Z" id="XMLID_655_" fill="#434356" fill-rule="nonzero"></path>
                                                <path d="M14.3546774,4.40094428 C14.2382229,4.40094428 14.1271349,4.35139296 14.0493196,4.26463343 L12.4731584,2.50761877 C12.3334487,2.35180938 12.3334487,2.11568035 12.4731584,1.95969208 L14.0493196,0.202677419 C14.1271349,0.115917889 14.2382229,0.0663665689 14.3546774,0.0663665689 C14.471132,0.0663665689 14.5822199,0.115917889 14.6600352,0.202677419 L16.2360176,1.95969208 C16.3757273,2.11550147 16.3757273,2.3516305 16.2360176,2.50761877 L14.6600352,4.26463343 C14.5822199,4.35139296 14.471132,4.40094428 14.3546774,4.40094428 Z M13.3296628,2.23356598 L14.3546774,3.37628739 L15.3796921,2.23356598 L14.3546774,1.09084457 L13.3296628,2.23356598 Z" id="XMLID_652_" fill="#434356" fill-rule="nonzero"></path>
                                                <path d="M20.4961789,4.40094428 L20.4961789,4.40094428 C20.3797243,4.40094428 20.2686364,4.35139296 20.1908211,4.26463343 L18.6148387,2.50761877 C18.475129,2.35180938 18.475129,2.11568035 18.6148387,1.95969208 L20.1908211,0.202677419 C20.2686364,0.115917889 20.3797243,0.0663665689 20.4961789,0.0663665689 C20.6126334,0.0663665689 20.7237214,0.115917889 20.8015367,0.202677419 L22.3775191,1.95969208 C22.5172287,2.11550147 22.5172287,2.3516305 22.3775191,2.50761877 L20.8015367,4.26463343 C20.7237214,4.35139296 20.6126334,4.40094428 20.4961789,4.40094428 Z M19.4711642,2.23356598 L20.4961789,3.37628739 L21.5211935,2.23356598 L20.4961789,1.09084457 L19.4711642,2.23356598 Z" id="XMLID_649_" fill="#434356" fill-rule="nonzero"></path>
                                            </g>
                                            <g id="XMLID_638_" stroke-width="1" fill="none" fill-rule="evenodd" transform="translate(21.108504, 29.516129)">
                                                <path d="M2.10119062,4.4243783 C1.98473607,4.4243783 1.87364809,4.37482698 1.79583284,4.28806745 L0.21985044,2.5308739 C0.0801407625,2.37506452 0.0801407625,2.13893548 0.21985044,1.9831261 L1.79583284,0.226111437 C1.87364809,0.139351906 1.98473607,0.0898005865 2.10119062,0.0898005865 C2.21764516,0.0898005865 2.32873314,0.139351906 2.40654839,0.226111437 L3.98270968,1.9831261 C4.12241935,2.13893548 4.12241935,2.37506452 3.98270968,2.5308739 L2.40654839,4.28806745 C2.32873314,4.37482698 2.21782405,4.4243783 2.10119062,4.4243783 Z M1.07635484,2.257 L2.10119062,3.39972141 L3.12620528,2.257 L2.10119062,1.11427859 L1.07635484,2.257 Z" id="XMLID_645_" fill="#434356" fill-rule="nonzero"></path>
                                                <path d="M8.24287097,4.4243783 C8.12641642,4.4243783 8.01532845,4.37482698 7.9375132,4.28806745 L6.36153079,2.5308739 C6.22182111,2.37506452 6.22182111,2.13893548 6.36153079,1.9831261 L7.9375132,0.226111437 C8.01532845,0.139351906 8.12641642,0.0898005865 8.24287097,0.0898005865 C8.3595044,0.0898005865 8.47041349,0.139351906 8.54822874,0.226111437 L10.12439,1.9831261 C10.2640997,2.13893548 10.2640997,2.37506452 10.12439,2.5308739 L8.54822874,4.28806745 C8.47041349,4.37482698 8.35932551,4.4243783 8.24287097,4.4243783 Z M7.2178563,2.257 L8.24269208,3.39972141 L9.26770674,2.257 L8.24269208,1.11427859 L7.2178563,2.257 Z" id="XMLID_642_" fill="#434356" fill-rule="nonzero"></path>
                                                <path d="M14.3843724,4.4243783 C14.2679179,4.4243783 14.1568299,4.37482698 14.0790147,4.28806745 L12.5030323,2.5308739 C12.3633226,2.37506452 12.3633226,2.13893548 12.5030323,1.9831261 L14.0790147,0.226111437 C14.1568299,0.139351906 14.2679179,0.0898005865 14.3843724,0.0898005865 C14.500827,0.0898005865 14.611915,0.139351906 14.6897302,0.226111437 L16.2658915,1.9831261 C16.4056012,2.13893548 16.4056012,2.37506452 16.2658915,2.5308739 L14.6897302,4.28806745 C14.611915,4.37482698 14.500827,4.4243783 14.3843724,4.4243783 Z M13.3593578,2.257 L14.3841935,3.39972141 L15.4092082,2.257 L14.3841935,1.11427859 L13.3593578,2.257 Z" id="XMLID_639_" fill="#434356" fill-rule="nonzero"></path>
                                            </g>
                                            <g id="XMLID_628_" stroke-width="1" fill="none" fill-rule="evenodd" transform="translate(21.108504, 20.214076)">
                                                <path d="M2.10119062,4.40309091 C1.98473607,4.40309091 1.87364809,4.35353959 1.79583284,4.26678006 L0.21985044,2.5097654 C0.0801407625,2.35395601 0.0801407625,2.11782698 0.21985044,1.96183871 L1.79583284,0.204824047 C1.87364809,0.118064516 1.98473607,0.0685131965 2.10119062,0.0685131965 C2.21764516,0.0685131965 2.32873314,0.118064516 2.40654839,0.204824047 L3.98270968,1.96183871 C4.12241935,2.11764809 4.12241935,2.35377713 3.98270968,2.5097654 L2.40654839,4.26678006 C2.32873314,4.35353959 2.21782405,4.40309091 2.10119062,4.40309091 Z M1.07635484,2.23571261 L2.10119062,3.37843402 L3.12620528,2.23571261 L2.10119062,1.0929912 L1.07635484,2.23571261 Z" id="XMLID_635_" fill="#434356" fill-rule="nonzero"></path>
                                                <path d="M8.24287097,4.40309091 C8.12641642,4.40309091 8.01532845,4.35353959 7.9375132,4.26678006 L6.36153079,2.5097654 C6.22182111,2.35395601 6.22182111,2.11782698 6.36153079,1.96183871 L7.9375132,0.204824047 C8.01532845,0.118064516 8.12641642,0.0685131965 8.24287097,0.0685131965 C8.3595044,0.0685131965 8.47041349,0.118064516 8.54822874,0.204824047 L10.12439,1.96183871 C10.2640997,2.11764809 10.2640997,2.35377713 10.12439,2.5097654 L8.54822874,4.26678006 C8.47041349,4.35353959 8.35932551,4.40309091 8.24287097,4.40309091 Z M7.2178563,2.23571261 L8.24269208,3.37843402 L9.26770674,2.23571261 L8.24269208,1.0929912 L7.2178563,2.23571261 Z" id="XMLID_632_" fill="#434356" fill-rule="nonzero"></path>
                                                <path d="M14.3843724,4.40309091 C14.2679179,4.40309091 14.1568299,4.35353959 14.0790147,4.26678006 L12.5030323,2.5097654 C12.3633226,2.35395601 12.3633226,2.11782698 12.5030323,1.96183871 L14.0790147,0.204824047 C14.1568299,0.118064516 14.2679179,0.0685131965 14.3843724,0.0685131965 C14.500827,0.0685131965 14.611915,0.118064516 14.6897302,0.204824047 L16.2658915,1.96183871 C16.4056012,2.11764809 16.4056012,2.35377713 16.2658915,2.5097654 L14.6897302,4.26678006 C14.611915,4.35353959 14.500827,4.40309091 14.3843724,4.40309091 Z M13.3593578,2.23571261 L14.3841935,3.37843402 L15.4092082,2.23571261 L14.3841935,1.0929912 L13.3593578,2.23571261 Z" id="XMLID_629_" fill="#434356" fill-rule="nonzero"></path>
                                            </g>
                                            <rect id="XMLID_330_" fill="#434356" fill-rule="nonzero" x="0.172624633" y="49.3930059" width="58.3573226" height="1"></rect>
                                        </g>
                                    </g>
                                </g>
                            </g>
                        </g>
                    </g>
                </g>
            </g>
        </g>
    </g>
</svg>