<?xml version="1.0" encoding="UTF-8"?>
<svg width="161px" height="154px" viewBox="0 0 161 154" version="1.1" xmlns="http://www.w3.org/2000/svg" xmlns:xlink="http://www.w3.org/1999/xlink">
    <!-- Generator: Sketch 46.1 (44463) - http://www.bohemiancoding.com/sketch -->
    <title>icon-finance@3x</title>
    <desc>Created with Sketch.</desc>
    <defs>
        <linearGradient x1="76.2758258%" y1="6.27982983%" x2="23.7243243%" y2="93.7201702%" id="linearGradient-1">
            <stop stop-color="#5A65AE" offset="0%"></stop>
            <stop stop-color="#6080B7" offset="18.33%"></stop>
            <stop stop-color="#6599BF" offset="36.65%"></stop>
            <stop stop-color="#68ADC5" offset="54.32%"></stop>
            <stop stop-color="#6EBDCA" offset="71.14%"></stop>
            <stop stop-color="#70C5CC" offset="86.76%"></stop>
            <stop stop-color="#6FCACE" offset="100%"></stop>
        </linearGradient>
        <linearGradient x1="-6.01250601e-05%" y1="50%" x2="100.000241%" y2="50%" id="linearGradient-2">
            <stop stop-color="#207ABF" offset="0%"></stop>
            <stop stop-color="#1F83A6" offset="15.86%"></stop>
            <stop stop-color="#1C8B90" offset="31.67%"></stop>
            <stop stop-color="#19917E" offset="47.02%"></stop>
            <stop stop-color="#15956C" offset="61.8%"></stop>
            <stop stop-color="#14985F" offset="75.87%"></stop>
            <stop stop-color="#169A56" offset="88.93%"></stop>
            <stop stop-color="#169C53" offset="100%"></stop>
        </linearGradient>
        <linearGradient x1="-0.000844166807%" y1="50.002116%" x2="99.9988744%" y2="50.002116%" id="linearGradient-3">
            <stop stop-color="#E7486A" offset="0%"></stop>
            <stop stop-color="#F3B16D" offset="100%"></stop>
        </linearGradient>
        <linearGradient x1="-0.000782074845%" y1="50.0002904%" x2="99.9984359%" y2="50.0002904%" id="linearGradient-4">
            <stop stop-color="#E7486A" offset="0%"></stop>
            <stop stop-color="#F3B16D" offset="100%"></stop>
        </linearGradient>
        <linearGradient x1="-0.00923361034%" y1="50.0077685%" x2="100.006925%" y2="50.0077685%" id="linearGradient-5">
            <stop stop-color="#E7486A" offset="0%"></stop>
            <stop stop-color="#F3B16D" offset="100%"></stop>
        </linearGradient>
        <linearGradient x1="0.00800961153%" y1="49.9946113%" x2="99.9919904%" y2="49.9946113%" id="linearGradient-6">
            <stop stop-color="#E7486A" offset="0%"></stop>
            <stop stop-color="#F3B16D" offset="100%"></stop>
        </linearGradient>
        <linearGradient x1="0.00117311227%" y1="49.9991762%" x2="100.000782%" y2="49.9991762%" id="linearGradient-7">
            <stop stop-color="#E7486A" offset="0%"></stop>
            <stop stop-color="#F3B16D" offset="100%"></stop>
        </linearGradient>
        <linearGradient x1="0.000353718411%" y1="49.9993867%" x2="100.000439%" y2="49.9993867%" id="linearGradient-8">
            <stop stop-color="#207ABF" offset="0%"></stop>
            <stop stop-color="#1F83A6" offset="15.86%"></stop>
            <stop stop-color="#1C8B90" offset="31.67%"></stop>
            <stop stop-color="#19917E" offset="47.02%"></stop>
            <stop stop-color="#15956C" offset="61.8%"></stop>
            <stop stop-color="#14985F" offset="75.87%"></stop>
            <stop stop-color="#169A56" offset="88.93%"></stop>
            <stop stop-color="#169C53" offset="100%"></stop>
        </linearGradient>
        <linearGradient x1="-0.00670442585%" y1="50.0009229%" x2="99.9908248%" y2="50.0009229%" id="linearGradient-9">
            <stop stop-color="#E7486A" offset="0%"></stop>
            <stop stop-color="#F3B16D" offset="100%"></stop>
        </linearGradient>
        <linearGradient x1="0.000486795668%" y1="49.9998788%" x2="100.000487%" y2="49.9998788%" id="linearGradient-10">
            <stop stop-color="#5A65AE" offset="0%"></stop>
            <stop stop-color="#6080B7" offset="18.33%"></stop>
            <stop stop-color="#6599BF" offset="36.65%"></stop>
            <stop stop-color="#68ADC5" offset="54.32%"></stop>
            <stop stop-color="#6EBDCA" offset="71.14%"></stop>
            <stop stop-color="#70C5CC" offset="86.76%"></stop>
            <stop stop-color="#6FCACE" offset="100%"></stop>
        </linearGradient>
        <linearGradient x1="-0.00364963504%" y1="49.9995014%" x2="100.007299%" y2="49.9995014%" id="linearGradient-11">
            <stop stop-color="#5A65AE" offset="0%"></stop>
            <stop stop-color="#6080B7" offset="18.33%"></stop>
            <stop stop-color="#6599BF" offset="36.65%"></stop>
            <stop stop-color="#68ADC5" offset="54.32%"></stop>
            <stop stop-color="#6EBDCA" offset="71.14%"></stop>
            <stop stop-color="#70C5CC" offset="86.76%"></stop>
            <stop stop-color="#6FCACE" offset="100%"></stop>
        </linearGradient>
        <linearGradient x1="0.000184341991%" y1="50.0004535%" x2="99.9997235%" y2="50.0004535%" id="linearGradient-12">
            <stop stop-color="#207ABF" offset="0%"></stop>
            <stop stop-color="#1F83A6" offset="15.86%"></stop>
            <stop stop-color="#1C8B90" offset="31.67%"></stop>
            <stop stop-color="#19917E" offset="47.02%"></stop>
            <stop stop-color="#15956C" offset="61.8%"></stop>
            <stop stop-color="#14985F" offset="75.87%"></stop>
            <stop stop-color="#169A56" offset="88.93%"></stop>
            <stop stop-color="#169C53" offset="100%"></stop>
        </linearGradient>
        <linearGradient x1="0%" y1="50%" x2="99.999065%" y2="50%" id="linearGradient-13">
            <stop stop-color="#207ABF" offset="0%"></stop>
            <stop stop-color="#1F83A6" offset="15.86%"></stop>
            <stop stop-color="#1C8B90" offset="31.67%"></stop>
            <stop stop-color="#19917E" offset="47.02%"></stop>
            <stop stop-color="#15956C" offset="61.8%"></stop>
            <stop stop-color="#14985F" offset="75.87%"></stop>
            <stop stop-color="#169A56" offset="88.93%"></stop>
            <stop stop-color="#169C53" offset="100%"></stop>
        </linearGradient>
        <linearGradient x1="-0.0109489051%" y1="49.9998338%" x2="100%" y2="49.9998338%" id="linearGradient-14">
            <stop stop-color="#207ABF" offset="0%"></stop>
            <stop stop-color="#1F83A6" offset="15.86%"></stop>
            <stop stop-color="#1C8B90" offset="31.67%"></stop>
            <stop stop-color="#19917E" offset="47.02%"></stop>
            <stop stop-color="#15956C" offset="61.8%"></stop>
            <stop stop-color="#14985F" offset="75.87%"></stop>
            <stop stop-color="#169A56" offset="88.93%"></stop>
            <stop stop-color="#169C53" offset="100%"></stop>
        </linearGradient>
        <linearGradient x1="0.000242974002%" y1="49.9997317%" x2="99.999757%" y2="49.9997317%" id="linearGradient-15">
            <stop stop-color="#E7486A" offset="0%"></stop>
            <stop stop-color="#F3B16D" offset="100%"></stop>
        </linearGradient>
        <linearGradient x1="-0.000585880285%" y1="50.0012374%" x2="100.000195%" y2="50.0012374%" id="linearGradient-16">
            <stop stop-color="#E7486A" offset="0%"></stop>
            <stop stop-color="#F3B16D" offset="100%"></stop>
        </linearGradient>
        <linearGradient x1="0.000223778728%" y1="49.9993623%" x2="100.000075%" y2="49.9993623%" id="linearGradient-17">
            <stop stop-color="#5A65AE" offset="0%"></stop>
            <stop stop-color="#6080B7" offset="18.33%"></stop>
            <stop stop-color="#6599BF" offset="36.65%"></stop>
            <stop stop-color="#68ADC5" offset="54.32%"></stop>
            <stop stop-color="#6EBDCA" offset="71.14%"></stop>
            <stop stop-color="#70C5CC" offset="86.76%"></stop>
            <stop stop-color="#6FCACE" offset="100%"></stop>
        </linearGradient>
        <linearGradient x1="0.000255221405%" y1="49.9998119%" x2="100%" y2="49.9998119%" id="linearGradient-18">
            <stop stop-color="#5A65AE" offset="0%"></stop>
            <stop stop-color="#6080B7" offset="18.33%"></stop>
            <stop stop-color="#6599BF" offset="36.65%"></stop>
            <stop stop-color="#68ADC5" offset="54.32%"></stop>
            <stop stop-color="#6EBDCA" offset="71.14%"></stop>
            <stop stop-color="#70C5CC" offset="86.76%"></stop>
            <stop stop-color="#6FCACE" offset="100%"></stop>
        </linearGradient>
        <linearGradient x1="0.00248640185%" y1="49.9968476%" x2="100.000596%" y2="49.9968476%" id="linearGradient-19">
            <stop stop-color="#E7486A" offset="0%"></stop>
            <stop stop-color="#F3B16D" offset="100%"></stop>
        </linearGradient>
        <linearGradient x1="-0.00166071577%" y1="50.0031503%" x2="100.00083%" y2="50.0031503%" id="linearGradient-20">
            <stop stop-color="#207ABF" offset="0%"></stop>
            <stop stop-color="#1F83A6" offset="15.86%"></stop>
            <stop stop-color="#1C8B90" offset="31.67%"></stop>
            <stop stop-color="#19917E" offset="47.02%"></stop>
            <stop stop-color="#15956C" offset="61.8%"></stop>
            <stop stop-color="#14985F" offset="75.87%"></stop>
            <stop stop-color="#169A56" offset="88.93%"></stop>
            <stop stop-color="#169C53" offset="100%"></stop>
        </linearGradient>
        <linearGradient x1="-0.00255761744%" y1="49.9993587%" x2="99.9994316%" y2="49.9993587%" id="linearGradient-21">
            <stop stop-color="#207ABF" offset="0%"></stop>
            <stop stop-color="#1F83A6" offset="15.86%"></stop>
            <stop stop-color="#1C8B90" offset="31.67%"></stop>
            <stop stop-color="#19917E" offset="47.02%"></stop>
            <stop stop-color="#15956C" offset="61.8%"></stop>
            <stop stop-color="#14985F" offset="75.87%"></stop>
            <stop stop-color="#169A56" offset="88.93%"></stop>
            <stop stop-color="#169C53" offset="100%"></stop>
        </linearGradient>
        <linearGradient x1="0.0025846472%" y1="49.9931957%" x2="100.007754%" y2="49.9931957%" id="linearGradient-22">
            <stop stop-color="#207ABF" offset="0%"></stop>
            <stop stop-color="#1F83A6" offset="15.86%"></stop>
            <stop stop-color="#1C8B90" offset="31.67%"></stop>
            <stop stop-color="#19917E" offset="47.02%"></stop>
            <stop stop-color="#15956C" offset="61.8%"></stop>
            <stop stop-color="#14985F" offset="75.87%"></stop>
            <stop stop-color="#169A56" offset="88.93%"></stop>
            <stop stop-color="#169C53" offset="100%"></stop>
        </linearGradient>
        <linearGradient x1="0.00693721818%" y1="44.19%" x2="100.017343%" y2="44.19%" id="linearGradient-23">
            <stop stop-color="#207ABF" offset="0%"></stop>
            <stop stop-color="#1F83A6" offset="15.86%"></stop>
            <stop stop-color="#1C8B90" offset="31.67%"></stop>
            <stop stop-color="#19917E" offset="47.02%"></stop>
            <stop stop-color="#15956C" offset="61.8%"></stop>
            <stop stop-color="#14985F" offset="75.87%"></stop>
            <stop stop-color="#169A56" offset="88.93%"></stop>
            <stop stop-color="#169C53" offset="100%"></stop>
        </linearGradient>
        <linearGradient x1="-0.000852539146%" y1="49.9991683%" x2="100.001137%" y2="49.9991683%" id="linearGradient-24">
            <stop stop-color="#207ABF" offset="0%"></stop>
            <stop stop-color="#1F83A6" offset="15.86%"></stop>
            <stop stop-color="#1C8B90" offset="31.67%"></stop>
            <stop stop-color="#19917E" offset="47.02%"></stop>
            <stop stop-color="#15956C" offset="61.8%"></stop>
            <stop stop-color="#14985F" offset="75.87%"></stop>
            <stop stop-color="#169A56" offset="88.93%"></stop>
            <stop stop-color="#169C53" offset="100%"></stop>
        </linearGradient>
        <linearGradient x1="-0.00289477493%" y1="49.9996254%" x2="99.9956578%" y2="49.9996254%" id="linearGradient-25">
            <stop stop-color="#207ABF" offset="0%"></stop>
            <stop stop-color="#1F83A6" offset="15.86%"></stop>
            <stop stop-color="#1C8B90" offset="31.67%"></stop>
            <stop stop-color="#19917E" offset="47.02%"></stop>
            <stop stop-color="#15956C" offset="61.8%"></stop>
            <stop stop-color="#14985F" offset="75.87%"></stop>
            <stop stop-color="#169A56" offset="88.93%"></stop>
            <stop stop-color="#169C53" offset="100%"></stop>
        </linearGradient>
        <linearGradient x1="-0.00255885363%" y1="49.9933614%" x2="99.9987206%" y2="49.9933614%" id="linearGradient-26">
            <stop stop-color="#207ABF" offset="0%"></stop>
            <stop stop-color="#1F83A6" offset="15.86%"></stop>
            <stop stop-color="#1C8B90" offset="31.67%"></stop>
            <stop stop-color="#19917E" offset="47.02%"></stop>
            <stop stop-color="#15956C" offset="61.8%"></stop>
            <stop stop-color="#14985F" offset="75.87%"></stop>
            <stop stop-color="#169A56" offset="88.93%"></stop>
            <stop stop-color="#169C53" offset="100%"></stop>
        </linearGradient>
        <linearGradient x1="-0.03%" y1="50%" x2="90.69%" y2="50%" id="linearGradient-27">
            <stop stop-color="#207ABF" offset="0%"></stop>
            <stop stop-color="#1F83A6" offset="15.86%"></stop>
            <stop stop-color="#1C8B90" offset="31.67%"></stop>
            <stop stop-color="#19917E" offset="47.02%"></stop>
            <stop stop-color="#15956C" offset="61.8%"></stop>
            <stop stop-color="#14985F" offset="75.87%"></stop>
            <stop stop-color="#169A56" offset="88.93%"></stop>
            <stop stop-color="#169C53" offset="100%"></stop>
        </linearGradient>
        <linearGradient x1="0.00434279097%" y1="50.0060205%" x2="100.001448%" y2="50.0060205%" id="linearGradient-28">
            <stop stop-color="#207ABF" offset="0%"></stop>
            <stop stop-color="#1F83A6" offset="15.86%"></stop>
            <stop stop-color="#1C8B90" offset="31.67%"></stop>
            <stop stop-color="#19917E" offset="47.02%"></stop>
            <stop stop-color="#15956C" offset="61.8%"></stop>
            <stop stop-color="#14985F" offset="75.87%"></stop>
            <stop stop-color="#169A56" offset="88.93%"></stop>
            <stop stop-color="#169C53" offset="100%"></stop>
        </linearGradient>
    </defs>
    <g id="karir-desktop" stroke="none" stroke-width="1" fill="none" fill-rule="evenodd">
        <g id="06-karir" transform="translate(-1182.000000, -1581.000000)">
            <g id="komposisi-tim" transform="translate(0.000000, 1388.000000)">
                <g id="teamwork" transform="translate(1102.000000, 153.000000)">
                    <g id="icon-finance" transform="translate(80.000000, 42.000000)">
                        <g>
                            <circle id="Oval" stroke="url(#linearGradient-1)" stroke-width="4" stroke-linecap="round" stroke-linejoin="bevel" stroke-dasharray="12.0714,12.0714" cx="80.4477612" cy="75.2910448" r="74.5522388"></circle>
                            <circle id="Oval" fill="url(#linearGradient-2)" fill-rule="nonzero" opacity="0.3" cx="80.4477612" cy="75.2910448" r="62.0597015"></circle>
                            <g id="Group" transform="translate(0.000000, 9.701493)" fill-rule="nonzero">
                                <path d="M92.6350746,129.302985 L160.335075,90.4365672 L128.71194,71.8574627 L148.446269,60.4238806 C154.067164,57.1791045 153.355224,51.458209 146.864925,47.711194 C140.374627,43.9641791 130.466418,43.5537313 124.845522,46.7985075 L105.317164,58.1134328 L79.6626866,43.0410448 L7.57985075,79.9164179 L92.6350746,129.302985 Z" id="Shape" fill="#4D555C" opacity="0.39"></path>
                                <g transform="translate(70.895522, 10.447761)">
                                    <path d="M33.491791,16.7291045 C33.491791,16.7291045 33.2246269,27.5343284 33.2246269,29.9649254 C33.2246269,32.3955224 33.5626866,37.4768657 29.2850746,39.2820896 C25.0074627,41.0880597 18.9507463,43.4514925 18.9507463,43.4514925 L24.6865672,47.1447761 C24.6865672,47.1447761 30.4716418,44.6283582 33.4447761,42.7947761 C37.6276119,40.2164179 37.1895522,33.1716418 37.1895522,28.6940299 C37.1895522,24.2164179 36.4261194,18.380597 36.4261194,18.380597 L33.491791,16.7291045 Z" id="Shape" fill="#46383B"></path>
                                    <path d="M18.9514925,66.9529851 L18.9514925,66.9529851 C17.6925373,66.9529851 16.6619403,65.9223881 16.6619403,64.6634328 L16.6619403,43.5343284 C16.6619403,42.2746269 17.6925373,41.2447761 18.9514925,41.2447761 L18.9514925,41.2447761 C20.211194,41.2447761 21.2410448,42.2746269 21.2410448,43.5343284 L21.2410448,64.6634328 C21.2410448,65.9223881 20.2104478,66.9529851 18.9514925,66.9529851 Z" id="Shape" fill="#46383B"></path>
                                    <g transform="translate(3.731343, 31.343284)">
                                        <ellipse id="Oval" fill="#848484" cx="15.2201493" cy="13.2029851" rx="14.4865672" ry="7.70597015"></ellipse>
                                        <rect id="Rectangle-path" fill="#848484" x="0.73358209" y="11.7492537" width="28.9731343" height="1.67686567"></rect>
                                        <ellipse id="Oval" fill="#C9C9C9" cx="15.2201493" cy="11.7492537" rx="14.4865672" ry="7.70522388"></ellipse>
                                        <ellipse id="Oval" fill="#2B79B7" cx="15.2201493" cy="10.9134328" rx="13.8022388" ry="7.34179104"></ellipse>
                                        <polygon id="Shape" fill="#E04E26" points="2.15 6.19701493 1.41791045 10.9134328 29.0223881 10.9134328 28.288806 6.19701493"></polygon>
                                        <ellipse id="Oval" fill="url(#linearGradient-3)" cx="15.2201493" cy="7.3619403" rx="13.2604478" ry="7.05373134"></ellipse>
                                    </g>
                                    <g transform="translate(24.626866, 0.000000)" id="Shape">
                                        <path d="M22.3395522,33.9432836 L22.3395522,18.0940299 C22.3395522,12.5447761 18.9343284,6.0380597 14.7723881,3.63507463 L10.8223881,1.35447761 C6.66044776,-1.04850746 3.25522388,1.5261194 3.25522388,7.07537313 L3.25522388,22.9246269 L22.3395522,33.9432836 Z" fill="url(#linearGradient-4)"></path>
                                        <polygon fill="url(#linearGradient-5)" points="5.79477612 1.01940299 2.5619403 2.94104478 5.45373134 4.8619403"></polygon>
                                        <polygon fill="url(#linearGradient-6)" points="19.188806 35.8149254 22.3395522 33.9432836 18.6126866 30.2753731"></polygon>
                                        <path d="M19.188806,35.8149254 L19.188806,19.9656716 C19.188806,14.4164179 15.7835821,7.90970149 11.6216418,5.50671642 L7.67164179,3.2261194 C3.50970149,0.823134328 0.104477612,3.39776119 0.104477612,8.94701493 L0.104477612,24.7962687 L19.188806,35.8149254 Z" fill="url(#linearGradient-7)"></path>
                                    </g>
                                    <g transform="translate(1.492537, 76.119403)" id="Shape">
                                        <path d="M3.87835821,1.72910448 C3.87835821,3.14925373 3.01492537,4.79850746 1.95,5.41343284 C0.885074627,6.02835821 0.021641791,5.37537313 0.021641791,3.95597015 C0.021641791,2.5358209 0.885074627,0.886567164 1.95,0.271641791 C3.01492537,-0.344029851 3.87835821,0.308955224 3.87835821,1.72910448 Z" fill="#46383B"></path>
                                        <polygon fill="#46383B" points="4.60746269 0.997014925 3.11940299 0.123134328 0.692537313 5.51716418 2.24253731 6.41044776"></polygon>
                                        <path d="M5.43656716,2.62910448 C5.43656716,4.04925373 4.57313433,5.69850746 3.50820896,6.31343284 C2.44328358,6.92835821 1.57985075,6.27537313 1.57985075,4.85597015 C1.57985075,3.4358209 2.44328358,1.78656716 3.50820896,1.17164179 C4.57313433,0.555970149 5.43656716,1.20895522 5.43656716,2.62910448 Z" fill="#342220"></path>
                                    </g>
                                    <path d="M2.32835821,76.9746269 L2.32835821,76.9746269 C1.88507463,76.2067164 2.14776119,75.2246269 2.91641791,74.7813433 L33.3820896,57.1970149 C34.15,56.7537313 35.1313433,57.0171642 35.5746269,57.7850746 L35.5746269,57.7850746 C36.0179104,58.5529851 35.7552239,59.5350746 34.9865672,59.9783582 L4.52089552,77.5626866 C3.75298507,78.0052239 2.77164179,77.741791 2.32835821,76.9746269 Z" id="Shape" fill="#46383B"></path>
                                    <path d="M33.3813433,77.5619403 L2.91567164,59.9776119 C2.14776119,59.5343284 1.88432836,58.5522388 2.32761194,57.7843284 L2.32761194,57.7843284 C2.77089552,57.0164179 3.75298507,56.7529851 4.52089552,57.1962687 L34.9865672,74.780597 C35.7544776,75.2238806 36.0179104,76.2059701 35.5746269,76.9738806 L35.5746269,76.9738806 C35.1313433,77.741791 34.1492537,78.0052239 33.3813433,77.5619403 Z" id="Shape" fill="#46383B"></path>
                                    <g transform="translate(31.343284, 58.208955)" id="Shape">
                                        <path d="M3.89626866,2.04179104 C3.89626866,3.4619403 3.03283582,5.11119403 1.96791045,5.7261194 C0.902985075,6.34104478 0.0395522388,5.6880597 0.0395522388,4.26791045 C0.0395522388,2.84776119 0.902985075,1.19850746 1.96791045,0.58358209 C3.03283582,-0.0313432836 3.89626866,0.621641791 3.89626866,2.04179104 Z" fill="#46383B"></path>
                                        <polygon fill="#46383B" points="4.6261194 1.30970149 3.1380597 0.435820896 0.71119403 5.82985075 2.26119403 6.72313433"></polygon>
                                        <path d="M5.45447761,2.94179104 C5.45447761,4.3619403 4.59104478,6.01119403 3.5261194,6.6261194 C2.46119403,7.24104478 1.59776119,6.5880597 1.59776119,5.16791045 C1.59776119,3.74776119 2.46119403,2.09850746 3.5261194,1.48358209 C4.59104478,0.868656716 5.45447761,1.52164179 5.45447761,2.94179104 Z" fill="#342220"></path>
                                    </g>
                                    <g transform="translate(29.104478, 76.119403)" id="Shape">
                                        <path d="M4.25671642,2.17910448 C4.25671642,3.59925373 3.39328358,5.24850746 2.32835821,5.86343284 C1.26343284,6.47835821 0.4,5.82537313 0.4,4.40597015 C0.4,2.9858209 1.26343284,1.33656716 2.32835821,0.721641791 C3.39328358,0.105970149 4.25671642,0.758955224 4.25671642,2.17910448 Z" fill="#46383B"></path>
                                        <polygon fill="#46383B" points="4.9858209 1.44701493 3.49776119 0.573880597 1.07164179 5.96716418 2.62089552 6.86044776"></polygon>
                                        <path d="M5.81492537,3.07910448 C5.81492537,4.49925373 4.95149254,6.14850746 3.88656716,6.76343284 C2.82164179,7.37835821 1.95820896,6.72537313 1.95820896,5.30597015 C1.95820896,3.8858209 2.82164179,2.23656716 3.88656716,1.62164179 C4.95149254,1.00671642 5.81492537,1.65895522 5.81492537,3.07910448 Z" fill="#342220"></path>
                                    </g>
                                    <g transform="translate(0.000000, 58.955224)" id="Shape">
                                        <path d="M4.15298507,2.29701493 C4.15298507,3.71716418 3.28955224,5.36641791 2.22462687,5.98134328 C1.15970149,6.59626866 0.296268657,5.94328358 0.296268657,4.52313433 C0.296268657,3.10298507 1.15970149,1.45373134 2.22462687,0.83880597 C3.28955224,0.224626866 4.15298507,0.876865672 4.15298507,2.29701493 Z" fill="#46383B"></path>
                                        <polygon fill="#46383B" points="4.88208955 1.56567164 3.39402985 0.691791045 0.967910448 6.0858209 2.51716418 6.97910448"></polygon>
                                        <path d="M5.71119403,3.19776119 C5.71119403,4.61791045 4.84776119,6.26716418 3.78283582,6.88208955 C2.71791045,7.49701493 1.85447761,6.84402985 1.85447761,5.4238806 C1.85447761,4.00373134 2.71791045,2.35447761 3.78283582,1.73955224 C4.84776119,1.12462687 5.71119403,1.77761194 5.71119403,3.19776119 Z" fill="#342220"></path>
                                    </g>
                                </g>
                                <g transform="translate(60.447761, 6.716418)" id="Shape">
                                    <path d="M10.6365672,47.0223881 C10.6365672,47.0223881 5.98507463,50.9134328 6.31940299,55.0238806 C6.50223881,57.2664179 6.23208955,58.2671642 6.5880597,61.0552239 C6.9238806,63.6835821 7.10597015,74.1776119 6.95597015,77.6365672 C6.80522388,81.0955224 4.52910448,84.208209 3.67835821,85.419403 C2.82761194,86.6298507 5.24029851,88.7052239 7.23358209,86.9761194 C9.22686567,85.2462687 9.44253731,84.9007463 10.5455224,84.3820896 C11.6485075,83.8634328 12.5641791,81.441791 11.8470149,78.6746269 C11.1298507,75.9074627 11.8052239,70.5462687 12.9373134,65.8768657 C13.6171642,63.0738806 13.5432836,59.6455224 13.5052239,57.0537313 C13.4798507,55.3283582 19.8328358,49.8238806 20.0716418,49.2708955 C20.6686567,47.8873134 10.6365672,47.0223881 10.6365672,47.0223881 Z" fill="#F79F8E"></path>
                                    <path d="M3.67761194,85.4201493 C3.67761194,85.4201493 1.23880597,87.258209 0.408955224,88.1731343 C-0.420895522,89.0880597 1.93731343,90.608209 4.28507463,89.9164179 C6.63208955,89.2246269 8.63432836,87.1402985 10.5447761,85.5925373 C12.4186567,84.0746269 12.9365672,83.5246269 12.9365672,81.6798507 C12.9365672,80.7716418 12.0492537,79.7716418 12.0492537,79.7716418 C12.0492537,79.7716418 11.2955224,83.4776119 8.58880597,84.9134328 C6.00522388,86.2843284 4.95970149,86.4634328 3.67761194,85.4201493 Z" fill="#342220"></path>
                                    <path d="M14.7186567,53.0753731 C13.6171642,54.1783582 12.4701493,56.4014925 12.9365672,58.7828358 C13.369403,60.9902985 13.7104478,62.6738806 13.7216418,65.0119403 C13.7343284,67.6619403 14.2395522,78.5880597 14.088806,82.0470149 C13.9380597,85.5059701 11.6619403,88.6186567 10.811194,89.8298507 C9.96044776,91.0402985 12.3731343,93.1156716 14.3664179,91.3865672 C16.3597015,89.6567164 16.5753731,89.311194 17.6783582,88.7925373 C18.780597,88.2738806 19.6970149,85.8522388 18.9798507,83.0850746 C18.2626866,80.3179104 18.9380597,74.9567164 20.0701493,70.2873134 C21.2022388,65.6179104 19.7462687,59.3350746 20.7119403,58.1776119 C22.6619403,55.8425373 26.7410448,53.8141791 26.8798507,51.4470149 C27.0529851,48.5022388 24.1141791,43.6485075 21.2029851,44.9716418 C20.2335821,45.4119403 18.35,49.4365672 14.7186567,53.0753731 Z" fill="#FBC5B4"></path>
                                    <path d="M10.8119403,89.8298507 C10.8119403,89.8298507 8.37313433,91.6679104 7.54328358,92.5828358 C6.71343284,93.4977612 9.07238806,95.0179104 11.419403,94.3261194 C13.7664179,93.6343284 15.7686567,91.55 17.6791045,90.0022388 C19.5529851,88.4843284 20.0708955,87.9343284 20.0708955,86.0895522 C20.0708955,85.1813433 19.1835821,84.1813433 19.1835821,84.1813433 C19.1835821,84.1813433 18.4298507,87.8873134 15.7231343,89.3238806 C13.1395522,90.6947761 12.0940299,90.8738806 10.8119403,89.8298507 Z" fill="#342220"></path>
                                    <path d="M35.7574627,35.9753731 C35.7574627,35.9753731 37.8932836,42.8216418 35.2985075,47.5044776 C33.1589552,51.3664179 22.0022388,57.0529851 22.0022388,57.0529851 C22.0022388,57.0529851 20.4164179,52.0298507 15.3238806,50.2141791 C12.3365672,49.1492537 9.18432836,48.4679104 9.18432836,48.4679104 L20.7126866,33.791791 C20.7126866,33.7925373 26.7044776,41.1858209 35.7574627,35.9753731 Z" fill="#342220"></path>
                                    <path d="M19.888806,17.2574627 C19.888806,17.2574627 19.2291045,16.9276119 18.2828358,16.0671642 C17.1470149,15.0328358 17.1470149,13.95 17.1470149,13.95 C17.1470149,13.95 21.9985075,7.98358209 23.8895522,6.65820896 C25.780597,5.33283582 28.85,8.18880597 28.85,8.18880597 L19.888806,17.2574627 Z" fill="#E9E6E7"></path>
                                    <path d="M40.1604478,16.4313433 C39.8022388,14.6395522 34.5656716,10.6649254 34.5656716,10.6649254 C34.5656716,10.6649254 31.4246269,12.9291045 30.3179104,13.7134328 C29.258209,14.4641791 27.4559701,16.4320896 27.3029851,16.5992537 C27.2947761,16.5977612 27.2865672,16.5962687 27.2776119,16.5947761 C27.3156716,16.258209 27.6507463,13.5641791 28.85,10.7298507 C29.2276119,9.8380597 28.85,7.15746269 28.85,7.15746269 C28.85,7.15746269 28.4313433,7.03134328 27.8238806,6.89253731 C26.8537313,7.86716418 24.9126866,10.4865672 23.8768657,11.5604478 C22.8768657,12.5970149 19.0343284,15.7977612 19.8992537,19.3432836 C20.1559701,20.3970149 20.4925373,21.3156716 20.9798507,22.6291045 C21.5268657,24.1022388 21.3544776,26.8514925 21.2037313,28.3402985 C21.0298507,30.0507463 19.2149254,34.4947761 19.2149254,34.4947761 C19.2149254,34.4947761 22.9291045,39.2455224 27.158209,39.2634328 C32.0947761,39.2843284 35.7574627,35.9761194 35.7574627,35.9761194 C35.7574627,35.9761194 34.9395522,28.4664179 35.2477612,25.3970149 C35.2477612,25.3962687 41.3432836,22.3462687 40.1604478,16.4313433 Z" fill="url(#linearGradient-8)"></path>
                                    <path d="M22.8723881,0.288059701 C22.8723881,0.288059701 22.5261194,3.27462687 22.7246269,5.77537313 C23.291791,12.9149254 23.4425373,14.441791 24.2052239,16.4604478 C25.6328358,12.7671642 28.3567164,9.48656716 28.3567164,9.48656716 L22.8723881,0.288059701 Z" fill="url(#linearGradient-9)"></path>
                                </g>
                                <g transform="translate(0.000000, 13.432836)" id="Shape">
                                    <g transform="translate(7.462687, 5.970149)">
                                        <polygon fill="url(#linearGradient-10)" points="2.1619403 61.6932836 32.8223881 43.8537313 32.8223881 0.13358209 2.1619403 17.9731343"></polygon>
                                        <polygon fill="url(#linearGradient-11)" points="2.1619403 61.6932836 0.117164179 60.5126866 0.117164179 16.7925373 2.1619403 17.9731343"></polygon>
                                    </g>
                                    <polygon fill="#342220" points="38.9149254 50.5925373 40.9597015 49.4119403 40.9597015 5.69179104 38.9149254 6.87238806"></polygon>
                                    <polygon fill="url(#linearGradient-12)" points="9.62462687 47.5604478 90.5902985 94.3776119 90.5902985 75.688806 9.62462687 28.5589552"></polygon>
                                    <g transform="translate(90.298507, 53.731343)">
                                        <polygon fill="url(#linearGradient-13)" points="2.33656716 62.138806 34.2619403 43.8171642 34.2619403 0.0970149254 2.33656716 18.4186567"></polygon>
                                        <polygon fill="url(#linearGradient-14)" points="2.33656716 62.138806 0.291791045 60.958209 0.291791045 17.2380597 2.33656716 18.4186567"></polygon>
                                    </g>
                                    <polygon fill="#5C5550" points="123.53806 98.138806 125.582836 96.958209 125.582836 53.2380597 123.53806 54.4186567"></polygon>
                                    <polygon fill="url(#linearGradient-15)" points="92.7022388 77.9037313 0.560447761 24.4567164 0.560447761 22.2738806 92.7022388 75.7208955"></polygon>
                                    <polygon fill="url(#linearGradient-16)" points="92.7022388 75.7208955 130.914925 53.6455224 130.914925 55.6955224 92.7022388 77.7701493"></polygon>
                                    <polygon fill="url(#linearGradient-17)" points="130.914925 53.6455224 88.280597 28.9074627 30.869403 39.8544776 92.7022388 75.7208955"></polygon>
                                    <polygon fill="url(#linearGradient-18)" points="38.7589552 0.17238806 0.560447761 22.2738806 30.869403 39.8544776 88.280597 28.9074627"></polygon>
                                </g>
                                <g transform="translate(59.701493, 36.567164)" id="Shape">
                                    <g>
                                        <polygon fill="#FFFFFF" points="22.1865672 9.41119403 6.41716418 0.284328358 0.578358209 3.64850746 16.3776119 12.7746269"></polygon>
                                        <polygon fill="#918A84" points="16.3776119 13.6014925 22.1865672 10.2291045 22.1865672 9.41119403 16.3776119 12.7746269"></polygon>
                                        <polygon fill="#9B9591" points="16.3776119 12.7746269 16.3776119 13.6014925 0.578358209 4.4261194 0.578358209 3.64850746"></polygon>
                                    </g>
                                    <polygon fill="#918A84" points="14.3313433 11.5947761 14.0358209 11.4246269 19.8529851 8.06268657 20.1522388 8.23208955"></polygon>
                                    <polygon fill="#918A84" points="12.030597 10.2656716 11.7350746 10.0947761 17.5522388 6.73358209 17.8507463 6.90223881"></polygon>
                                    <polygon fill="#918A84" points="9.73432836 8.93656716 9.43880597 8.76567164 15.2559701 5.40447761 15.5544776 5.57313433"></polygon>
                                    <polygon fill="#918A84" points="7.45447761 7.61044776 7.15820896 7.43955224 12.9753731 4.07835821 13.2746269 4.24701493"></polygon>
                                    <polygon fill="#918A84" points="21.0641791 10.061194 21.3597015 9.89029851 5.5641791 0.764925373 5.26567164 0.93358209"></polygon>
                                    <polygon fill="#918A84" points="19.9186567 10.7559701 20.211194 10.5895522 4.39776119 1.44776119 4.09850746 1.62014925"></polygon>
                                    <polygon fill="#918A84" points="18.7201493 11.4238806 19.0156716 11.2529851 3.22313433 2.12462687 2.92164179 2.29626866"></polygon>
                                    <polygon fill="#918A84" points="17.5313433 12.1432836 17.8507463 11.9865672 2.00373134 2.82761194 1.70746269 2.99776119"></polygon>
                                    <polygon fill="#918A84" points="5.2141791 6.30970149 4.91791045 6.13880597 10.7350746 2.77761194 11.0335821 2.94626866"></polygon>
                                    <polygon fill="#918A84" points="2.99776119 5.03208955 2.70149254 4.8619403 8.51940299 1.5 8.81791045 1.66940299"></polygon>
                                </g>
                                <g transform="translate(67.164179, 0.000000)" id="Shape">
                                    <path d="M10.6477612,21.5208955 C10.6477612,21.5208955 8.32985075,24.2104478 7.24626866,25.3925373 C6.84477612,25.830597 5.87761194,27.2291045 4.69104478,29.1149254 C3.06268657,31.7052239 1.52014925,34.541791 1.35447761,35.0649254 C0.921641791,36.4276119 -0.375373134,39.3873134 0.229850746,40.5246269 C0.835074627,41.661194 2.63656716,43.5753731 3.56940299,41.0134328 C4.04253731,39.7126866 4.41492537,36.4626866 4.61044776,36.0761194 C5.05970149,35.1902985 8.21343284,31.2261194 8.96940299,30.3895522 C9.7261194,29.5522388 13.1820896,26.058209 13.1820896,26.058209 C13.1820896,26.058209 13.0231343,24.6037313 13.1723881,23.9723881 C11.2507463,22.7634328 10.6477612,21.5208955 10.6477612,21.5208955 Z" fill="#FBC5B4"></path>
                                    <path d="M27.3119403,30.3902985 C27.3119403,30.3902985 26.211194,33.0761194 25.5380597,34.9447761 C24.8641791,36.8134328 23.1746269,38.1365672 22.1910448,38.711194 C21.4067164,39.1701493 17.8335821,40.508209 15.9134328,41.0134328 C15.5119403,41.1186567 11.8850746,41.880597 11.1522388,41.6798507 C8.00746269,40.8156716 6.21791045,41.3514925 4.80074627,42.1783582 C3.38358209,43.0059701 3.25373134,44.4134328 6.90447761,44.6246269 C10.5552239,44.8365672 13.2358209,44.9708955 15.3462687,44.9 C17.5261194,44.8268657 20.3440299,44.4970149 23.9731343,43.5910448 C27.6022388,42.6858209 28.7208955,40.580597 29.7246269,38.9328358 C30.7276119,37.2843284 32.9007463,32.2552239 32.9007463,32.2552239 L27.3119403,30.3902985 Z" fill="#FBC5B4"></path>
                                    <g transform="translate(16.417910, 8.208955)">
                                        <path d="M7.22910448,14.3432836 C7.80373134,13.8798507 8.27164179,13.5216418 8.55447761,13.2768657 C9.74179104,12.2507463 11.8059701,9.48731343 11.8059701,9.48731343 L11.7007463,0.459701493 L5.37835821,6.05895522 C5.37835821,6.05895522 5.27089552,9.10671642 4.65223881,10.7052239 C4.51343284,10.9007463 4.08283582,11.4059701 3.57462687,12.1231343 C4.3141791,12.8962687 5.47014925,13.7537313 7.22910448,14.3432836 Z" fill="#F79F8E"></path>
                                        <path d="M0.594029851,23.05 C3.71119403,19.4373134 5.81044776,15.4865672 7.22910448,14.3432836 C6.23283582,14.0089552 5.56044776,12.6223881 4.91791045,12.180597 C4.42537313,11.8425373 4.04104478,12.0753731 3.57537313,12.1231343 C0.382089552,15.1947761 -0.391044776,19.8574627 0.594029851,23.05 Z" fill="#FFFFFF"></path>
                                    </g>
                                    <path d="M19.769403,22.3201493 C19.769403,22.3201493 17.1746269,24.9029851 16.7925373,26.4410448 C16.2828358,28.7686567 16.9634328,31.4544776 16.9634328,31.4544776 C16.9634328,31.4544776 18.5313433,29.5179104 19.5671642,27.980597 C19.9365672,26.9208955 20.6932836,22.9238806 20.6932836,22.9238806 L19.769403,22.3201493 Z" fill="#F37343"></path>
                                    <polygon fill="#F37343" points="19.9932836 20.3328358 19.769403 22.3201493 20.6925373 22.9238806 22.6828358 21.8746269 21.3350746 20.3895522"></polygon>
                                    <path d="M21.6492537,16.5291045 L21.3350746,20.3902985 L18.3365672,21.0701493 C18.3365672,21.0701493 18.0947761,18.2828358 20.3261194,16.5179104 C20.7238806,16.2037313 21.1074627,16.4701493 21.6492537,16.5291045 Z" fill="#E9E6E7"></path>
                                    <path d="M25.4313433,3.55 C23.4358209,2.02985075 18.7089552,1.54253731 16.9835821,6.42686567 C15.1746269,11.5485075 19.8089552,17.9447761 22.2791045,16.858209 C23.6619403,16.2492537 26.5701493,14.0880597 27.388806,11.391791 C28.311194,8.35597015 26.9813433,4.73059701 25.4313433,3.55 Z" fill="#FBC5B4"></path>
                                    <path d="M26.5149254,17.6425373 C24.2992537,18.7186567 21.3350746,20.3895522 21.3350746,20.3895522 C21.3350746,20.3895522 22.1335821,22.5522388 22.9664179,24.3902985 C24.580597,23.6216418 26.5149254,21.3365672 26.5149254,21.3365672 C26.5149254,21.3365672 27.3067164,18.1186567 26.5149254,17.6425373 Z" fill="#E9E6E7"></path>
                                    <path d="M29.5514925,4.93208955 C28.7246269,3.40746269 26.7835821,1.32238806 25.3552239,0.734328358 C22.4932836,-0.444029851 20.5253731,0.568656716 17.8291045,3.04925373 C16.2074627,4.54104478 15.4626866,6.30149254 15.4626866,9.09179104 C15.4626866,9.09179104 19.6283582,12.0641791 22.1335821,12.5828358 C23.2947761,12.8231343 24.9022388,12.1320896 25.8432836,11.6701493 C25.9544776,12.9507463 26.1059701,14.4037313 26.0664179,15.0925373 C25.5380597,24.2119403 25.0716418,27.2649254 25.0716418,27.2649254 C25.0716418,27.2649254 25.8701493,27.2447761 26.9985075,25.2507463 C27.6126866,24.1656716 28.9119403,22.6365672 29.8679104,19.1261194 C30.3828358,17.2328358 31.0485075,7.69104478 29.5514925,4.93208955 Z" fill="url(#linearGradient-19)"></path>
                                    <path d="M32.5365672,35.3686567 C33.2738806,33.8395522 33.8873134,31.708209 34.1425373,30.8716418 C34.8201493,28.6529851 35.2992537,24.8149254 32.9708955,22.1970149 C30.641791,19.5798507 27.5291045,25.2701493 26.9746269,27.2149254 C26.3731343,29.3246269 25.9007463,31.6395522 25.5380597,32.8313433 C25.5380597,34.9447761 30.6052239,36.1604478 32.5365672,35.3686567 Z" fill="#E9E6E7"></path>
                                    <polygon fill="#FFFFFF" points="21.8955224 26.6 21.1432836 27.7910448 24.8798507 30.2955224 25.708209 29.0253731"></polygon>
                                </g>
                                <g transform="translate(31.343284, 0.746269)" id="Shape">
                                    <polygon fill="url(#linearGradient-20)" points="19.6276119 37.9067164 13.0835821 34.1283582 10.6402985 37.9067164 14.4723881 41.2350746"></polygon>
                                    <g>
                                        <path d="M27.7052239,15.3514925 L27.7052239,34.5067164 C27.7052239,35.9380597 26.1552239,36.8335821 24.9156716,36.1171642 L2.37462687,23.1037313 C1.79925373,22.7716418 1.44477612,22.1574627 1.44477612,21.4932836 L1.44477612,2.3380597 C1.44477612,0.906716418 2.99477612,0.0119402985 4.23432836,0.72761194 L26.7753731,13.741791 C27.3507463,14.0731343 27.7052239,14.6873134 27.7052239,15.3514925 Z" fill="url(#linearGradient-21)"></path>
                                        <polygon fill="url(#linearGradient-22)" points="26.7865672 36.1164179 25.5380597 36.8373134 24.080597 35.3134328 26.9679104 33.5470149"></polygon>
                                        <polygon fill="url(#linearGradient-23)" points="2.25671642 0.802238806 1.18059701 1.42462687 3.33208955 1.4619403"></polygon>
                                        <path d="M26.5,16.0559701 L26.5,35.211194 C26.5,36.6425373 24.95,37.5373134 23.7104478,36.8216418 L1.16940299,23.808209 C0.594029851,23.4761194 0.239552239,22.8619403 0.239552239,22.1977612 L0.239552239,3.04253731 C0.239552239,1.61119403 1.78955224,0.71641791 3.02910448,1.43208955 L25.5701493,14.4462687 C26.1455224,14.7776119 26.5,15.391791 26.5,16.0559701 Z" fill="url(#linearGradient-24)"></path>
                                    </g>
                                    <g transform="translate(8.208955, 20.895522)">
                                        <polygon fill="url(#linearGradient-25)" points="0.607462687 1.08731343 0.607462687 18.0208955 5.76343284 21.0089552 5.76343284 4.08208955"></polygon>
                                        <polygon fill="url(#linearGradient-26)" points="0.607462687 1.08731343 1.28432836 0.709701493 6.44029851 3.70447761 5.76343284 4.08208955"></polygon>
                                        <polygon fill="url(#linearGradient-27)" points="6.44029851 3.70447761 5.76343284 4.08208955 5.76343284 21.0089552 6.44029851 20.6313433"></polygon>
                                    </g>
                                    <polygon fill="url(#linearGradient-28)" points="14.4723881 41.6253731 19.6276119 38.6328358 19.6276119 37.9067164 14.4723881 40.8910448"></polygon>
                                </g>
                                <g transform="translate(79.850746, 47.761194)" id="Shape">
                                    <path d="M8.93134328,2.24328358 L5.68880597,0.375373134 L5.6880597,0.376119403 C5.57014925,0.302238806 5.43208955,0.252238806 5.27313433,0.252238806 C2.94179104,0.252238806 0.337313433,4.4 0.337313433,4.4 L3.63432836,6.29029851 L9.09104478,2.63731343 L8.93134328,2.24328358 Z" fill="#FFFFFF"></path>
                                    <path d="M3.61940299,6.29029851 L9.48656716,2.9 C9.48656716,2.9 9.1761194,2.14253731 8.55522388,2.14253731 C6.22462687,2.14253731 3.61940299,6.29029851 3.61940299,6.29029851 Z" fill="#9B9591"></path>
                                    <path d="M1.60671642,5.1261194 L1.95223881,5.3261194 C1.95223881,5.3261194 2.39179104,4.63134328 3.06567164,3.8119403 L2.71492537,3.61641791 C2.04328358,4.43283582 1.60671642,5.1261194 1.60671642,5.1261194 Z" fill="#9B9591"></path>
                                </g>
                                <g transform="translate(76.865672, 59.701493)" id="Shape">
                                    <polygon fill="#46383B" points="38.9679104 12.5201493 24.9462687 4.45373134 1.74776119 17.8149254 15.769403 25.8813433"></polygon>
                                    <path d="M13.7328358,1.4141791 C6.30746269,5.70223881 0.729850746,8.90746269 0.729850746,8.90746269 L0.729850746,17.1992537 L23.9283582,3.8380597 C23.9276119,3.83880597 19.1820896,-1.73283582 13.7328358,1.4141791 Z" fill="#67595E"></path>
                                    <path d="M14.7507463,2.02985075 C7.32537313,6.31791045 1.74776119,9.52313433 1.74776119,9.52313433 L1.74776119,17.8149254 L24.9462687,4.45373134 C24.9462687,4.45373134 20.2007463,-1.11716418 14.7507463,2.02985075 Z" fill="#55464B"></path>
                                    <g transform="translate(4.477612, 4.477612)">
                                        <polygon fill="#FFFFFF" points="16.5291045 0.532835821 0.114179104 10.0425373 11.1940299 16.4529851 27.6022388 6.92164179"></polygon>
                                        <polygon fill="#E9E6E7" points="10.9873134 4.50746269 6.24477612 7.24552239 15.3156716 12.4410448 20.0664179 9.70447761"></polygon>
                                        <polygon fill="#E9E6E7" points="16.4365672 1.41567164 11.6947761 4.15298507 20.7649254 9.34850746 25.5156716 6.6119403"></polygon>
                                        <polygon fill="#636464" points="4.50820896 8.99701493 4.14850746 9.20298507 12.8238806 14.1671642 13.1828358 13.9619403"></polygon>
                                        <polygon fill="#FAA846" points="3.5261194 9.56343284 2.26268657 10.2925373 10.930597 15.2604478 12.2014925 14.5283582"></polygon>
                                        <polygon fill="#E5E5E5" points="0.114179104 10.0425373 0.114179104 10.8462687 11.1940299 17.2552239 11.1940299 16.4529851"></polygon>
                                        <polygon fill="#918A84" points="27.5902985 6.92835821 11.1940299 16.4529851 11.1940299 17.2552239 27.5902985 7.73059701"></polygon>
                                    </g>
                                    <path d="M27.7544776,9.48059701 C20.3291045,13.7686567 14.7514925,16.9738806 14.7514925,16.9738806 L14.7514925,25.2656716 L37.95,11.9044776 C37.9492537,11.9052239 33.2037313,6.33358209 27.7544776,9.48059701 Z" fill="#67595E"></path>
                                    <polygon fill="#55464B" points="0.729850746 8.90746269 0.729850746 17.1507463 15.769403 25.8813433 15.769403 17.5895522"></polygon>
                                    <path d="M28.7723881,10.0962687 C21.3470149,14.3843284 15.769403,17.5895522 15.769403,17.5895522 L15.769403,25.8813433 L38.9679104,12.5208955 C38.9679104,12.5201493 34.2216418,6.94925373 28.7723881,10.0962687 Z" fill="#46383B"></path>
                                    <polygon fill="#67595E" points="0.729850746 8.90746269 15.769403 17.5895522 15.7776119 16.3723881 1.7880597 8.28432836"></polygon>
                                </g>
                                <g transform="translate(103.731343, 58.208955)">
                                    <g>
                                        <path d="M10.1977612,3.53208955 L4.30671642,6.93358209 C4.01492537,7.10223881 3.50522388,7.08134328 3.16791045,6.88656716 L0.31119403,5.23731343 C-0.026119403,5.04253731 -0.0626865672,4.74850746 0.229850746,4.57985075 L6.12089552,1.17910448 C6.41268657,1.01044776 6.92238806,1.03134328 7.25970149,1.2261194 L10.1164179,2.87537313 C10.4537313,3.06940299 10.4902985,3.3641791 10.1977612,3.53208955 Z" id="Shape" fill="#342220"></path>
                                        <rect id="Rectangle-path" fill="#342220" x="0.0328358209" y="4.26268657" width="1" height="1"></rect>
                                        <rect id="Rectangle-path" fill="#342220" x="8.7261194" y="2.63731343" width="1.6641791" height="1"></rect>
                                        <path d="M10.1977612,2.90447761 L4.30671642,6.30522388 C4.01492537,6.4738806 3.50522388,6.45298507 3.16791045,6.25820896 L0.31119403,4.60895522 C-0.026119403,4.4141791 -0.0626865672,4.12014925 0.229850746,3.95149254 L6.12089552,0.55 C6.41268657,0.381343284 6.92238806,0.402985075 7.25970149,0.597014925 L10.1164179,2.24626866 C10.4537313,2.44179104 10.4902985,2.7358209 10.1977612,2.90447761 Z" id="Shape" fill="#46383B"></path>
                                    </g>
                                    <polygon id="Shape" fill="#FFFFFF" points="0.750746269 4.17313433 3.71268657 5.96343284 8.95671642 2.93283582 5.99104478 1.14776119"></polygon>
                                    <ellipse id="Oval" fill="#B5B6B6" cx="7.96268657" cy="1.72910448" rx="1" ry="1"></ellipse>
                                </g>
                                <g transform="translate(39.552239, 44.776119)" id="Shape">
                                    <polygon fill="#FFFFFF" points="0.247761194 9.05447761 10.9022388 15.2059701 25.6753731 6.80149254 15.0208955 0.65"></polygon>
                                    <polygon fill="#E9E6E7" points="2.50373134 8.84850746 11.0932836 13.891791 20.2798507 8.66567164 11.6895522 3.62238806"></polygon>
                                    <polygon fill="#E9E6E7" points="13.1089552 2.77686567 21.6992537 7.81940299 23.6835821 6.71492537 15.0932836 1.67238806"></polygon>
                                </g>
                                <g transform="translate(52.238806, 52.985075)" id="Shape">
                                    <polygon fill="#FFFFFF" points="0.508955224 8.49626866 11.1634328 14.6477612 25.9365672 6.24328358 15.2813433 0.0917910448"></polygon>
                                    <polygon fill="#E9E6E7" points="14.258209 1.88283582 22.8485075 6.92537313 23.8402985 6.37238806 15.25 1.32985075"></polygon>
                                    <polygon fill="#E9E6E7" points="12.4701493 2.89925373 21.0604478 7.94253731 22.0529851 7.38955224 13.4626866 2.34701493"></polygon>
                                    <polygon fill="#E9E6E7" points="10.5880597 3.97537313 19.1783582 9.01791045 20.1701493 8.46567164 11.5798507 3.42313433"></polygon>
                                    <polygon fill="#E9E6E7" points="8.8 4.99253731 17.3902985 10.0350746 18.3828358 9.48208955 9.79253731 4.43955224"></polygon>
                                    <polygon fill="#E9E6E7" points="2.95 8.32761194 11.5402985 13.3701493 16.6268657 10.5402985 8.03656716 5.49776119"></polygon>
                                </g>
                                <g transform="translate(6.716418, 24.626866)" id="Shape">
                                    <polygon fill="#E9E6E7" points="0.3 10.6902985 19.9425373 22.0477612 23.3716418 11.4686567 3.72910448 0.11119403"></polygon>
                                    <polygon fill="#918A84" points="4.47089552 2.05 4.1238806 3.17164179 16.3462687 10.2507463 16.7201493 9.11716418"></polygon>
                                    <polygon fill="#918A84" points="3.77910448 4.10895522 1.8858209 10.0664179 6.50597015 12.7231343 8.4261194 6.75373134"></polygon>
                                </g>
                                <g transform="translate(78.358209, 50.746269)">
                                    <ellipse id="Oval" fill="#E04E26" cx="3.90895522" cy="11.8776119" rx="2.75149254" ry="1.54850746"></ellipse>
                                    <polygon id="Shape" fill="#E04E26" points="1.53358209 9.60820896 1.15746269 11.8776119 6.66044776 11.8776119 6.24925373 9.40597015"></polygon>
                                    <ellipse id="Oval" fill="#F37343" cx="3.90895522" cy="9.60820896" rx="2.37537313" ry="1.33731343"></ellipse>
                                    <ellipse id="Oval" fill="#C52126" cx="3.90895522" cy="9.60820896" rx="1.16791045" ry="1"></ellipse>
                                    <g>
                                        <path d="M1.02014925,3.40447761 C1.02014925,3.40447761 0.529104478,3.57313433 0.862686567,4.56044776 C1.19626866,5.54776119 1.82761194,6.98283582 1.80895522,7.19179104 C1.77761194,7.54850746 1.88507463,7.76044776 2.10149254,7.75 C2.47910448,7.73208955 2.32014925,6.9238806 2.32014925,6.9238806 L1.02014925,3.40447761 Z" id="Shape" fill="#E9E6E7"></path>
                                        <path d="M1.13283582,2.33880597 C0.886567164,2.42014925 0.652238806,2.38059701 0.608955224,2.25 C0.608955224,2.25 1.25447761,4.89701493 1.83059701,6.55895522 C2.16567164,7.5261194 3.21940299,10.1380597 3.21940299,10.1380597 C3.21940299,10.1380597 3.43208955,10.238806 3.70149254,10.2664179 C3.97537313,10.2947761 4.23208955,10.2402985 4.23208955,10.2402985 C4.23208955,10.2402985 3.40820896,7.07089552 3.1,6.10447761 C2.54701493,4.37164179 1.5,1.95447761 1.5,1.95447761 C1.54253731,2.08432836 1.37835821,2.25671642 1.13283582,2.33880597 Z" id="Shape" fill="#FFFFFF"></path>
                                        <path d="M1.11268657,0.78880597 L0.221641791,1.08432836 L0.608208955,2.24925373 C0.651492537,2.37985075 0.886567164,2.42014925 1.13208955,2.3380597 C1.37761194,2.25671642 1.54179104,2.08432836 1.49850746,1.95298507 L1.11268657,0.78880597 Z" id="Shape" fill="#918A84"></path>
                                        <ellipse id="Oval" fill="#9B9591" transform="translate(0.702679, 1.046262) rotate(-18.373344) translate(-0.702679, -1.046262) " cx="0.702679104" cy="0.923130714" rx="1" ry="1"></ellipse>
                                        <polygon id="Shape" fill="#9B9591" points="2.42014925 4.89701493 2.1858209 5.03731343 3.27537313 8.40074627 3.52985075 8.29029851"></polygon>
                                    </g>
                                </g>
                            </g>
                        </g>
                    </g>
                </g>
            </g>
        </g>
    </g>
</svg>