<?xml version="1.0" encoding="UTF-8"?>
<svg width="60px" height="60px" viewBox="0 0 60 60" version="1.1" xmlns="http://www.w3.org/2000/svg" xmlns:xlink="http://www.w3.org/1999/xlink">
    <!-- Generator: Sketch 46.1 (44463) - http://www.bohemiancoding.com/sketch -->
    <title>Group 7@3x</title>
    <desc>Created with Sketch.</desc>
    <defs>
        <linearGradient x1="50%" y1="0%" x2="50%" y2="100%" id="linearGradient-1">
            <stop stop-color="#15985D" offset="0%"></stop>
            <stop stop-color="#007CA8" offset="100%"></stop>
        </linearGradient>
        <polygon id="path-2" points="0 65.6122449 59.7014925 65.6122449 59.7014925 5.60012124 0 5.60012124"></polygon>
    </defs>
    <g id="homepage-desktop" stroke="none" stroke-width="1" fill="none" fill-rule="evenodd">
        <g id="00-homepage#4-04-otc" transform="translate(-1352.000000, -357.000000)">
            <g id="icon-bantuan" transform="translate(1352.000000, 279.000000)">
                <g id="Group-7" transform="translate(0.000000, 78.000000)">
                    <path d="M60,30.0060618 C60,46.5778097 46.6352239,60.0121237 30.1492537,60.0121237 C13.6632836,60.0121237 0.298507463,46.5778097 0.298507463,30.0060618 C0.298507463,13.434314 13.6632836,0 30.1492537,0 C46.6352239,0 60,13.434314 60,30.0060618" id="Page-1" fill="url(#linearGradient-1)"></path>
                    <path d="M47.0763881,36.2768185 C47.0763881,32.1284805 44.7089254,28.4260325 41.1629552,26.6250687 C41.052806,34.5790756 34.6372836,41.0279784 26.7244478,41.1387007 C28.5160896,44.7031208 32.1993731,47.0829016 36.3262388,47.0829016 C38.2611642,47.0829016 40.1429552,46.564997 41.7960896,45.5804981 L47.0295224,47.0357921 L45.5817612,41.7751293 C46.5611642,40.1133936 47.0763881,38.2218115 47.0763881,36.2768185" id="Fill-3" fill="#FEFEFE"></path>
                    <mask id="mask-3" fill="white">
                        <use xlink:href="#path-2"></use>
                    </mask>
                    <g id="Clip-6"></g>
                    <path d="M25.5435821,33.3059184 L27.4922388,33.3059184 L27.4922388,31.3471227 L25.5435821,31.3471227 L25.5435821,33.3059184 Z M24.5692537,23.4465266 L22.620597,23.4465266 C22.620597,21.2863902 24.3689552,19.5289351 26.5179104,19.5289351 C28.6671642,19.5289351 30.4152239,21.2863902 30.4152239,23.4465266 C30.4152239,24.5429481 29.9534328,25.597061 29.1477612,26.3376106 L27.4922388,27.8607183 L27.4922388,29.3883269 L25.5435821,29.3883269 L25.5435821,26.9983441 L27.8322388,24.8925187 C28.241194,24.5162427 28.4665672,24.002839 28.4665672,23.4465266 C28.4665672,22.3666084 27.5925373,21.4877309 26.5179104,21.4877309 C25.4432836,21.4877309 24.5692537,22.3666084 24.5692537,23.4465266 L24.5692537,23.4465266 Z M39.2167164,26.4174268 C39.2167164,19.3789048 33.5202985,13.652548 26.5179104,13.652548 C19.5155224,13.652548 13.8191045,19.3789048 13.8191045,26.4174268 C13.8191045,28.7113902 14.4265672,30.9450414 15.58,32.9056375 L13.8659701,39.135196 L20.0632836,37.4122479 C22.0140299,38.5716822 24.2358209,39.1823055 26.5179104,39.1823055 C33.5202985,39.1823055 39.2167164,33.4562487 39.2167164,26.4174268 L39.2167164,26.4174268 Z" id="Fill-5" fill="#FEFEFE" mask="url(#mask-3)"></path>
                </g>
            </g>
        </g>
    </g>
</svg>