<?xml version="1.0" encoding="UTF-8"?>
<svg width="72px" height="72px" viewBox="0 0 72 72" version="1.1" xmlns="http://www.w3.org/2000/svg" xmlns:xlink="http://www.w3.org/1999/xlink">
    <!-- Generator: Sketch 57.1 (83088) - https://sketch.com -->
    <title>progress</title>
    <desc>Created with Sketch.</desc>
    <defs>
        <linearGradient x1="50%" y1="50%" x2="84.5257676%" y2="23.5147429%" id="linearGradient-1">
            <stop stop-color="#FFFFFF" stop-opacity="0" offset="0%"></stop>
            <stop stop-color="#FFFFFF" offset="100%"></stop>
        </linearGradient>
    </defs>
    <g id="Websites" stroke="none" stroke-width="1" fill="none" fill-rule="evenodd">
        <g id="Home-1Exchange" transform="translate(-1018.000000, -4349.000000)" fill="url(#linearGradient-1)">
            <g id="section-Testimonials" transform="translate(0.000000, 4011.000000)">
                <g id="timer" transform="translate(1003.000000, 338.000000)">
                    <circle id="progress" cx="38" cy="38" r="38"></circle>
                </g>
            </g>
        </g>
    </g>
</svg>