<?xml version="1.0" encoding="UTF-8"?>
<svg width="76px" height="76px" viewBox="0 0 76 76" version="1.1" xmlns="http://www.w3.org/2000/svg" xmlns:xlink="http://www.w3.org/1999/xlink">
    <!-- Generator: Sketch 57.1 (83088) - https://sketch.com -->
    <title>progress</title>
    <desc>Created with Sketch.</desc>
    <g id="Websites" stroke="none" stroke-width="1" fill="none" fill-rule="evenodd">
        <g id="Home-1Exchange" transform="translate(-1003.000000, -4349.000000)" fill="">
            <g id="section-Testimonials" transform="translate(0.000000, 4011.000000)">
                <g id="timer" transform="translate(1003.000000, 338.000000)">
                    <circle id="progress" cx="38" cy="38" r="38"></circle>
                </g>
            </g>
        </g>
    </g>
</svg>